 ,ccccccllllllllllllllllllllllloooooooooooooooolllllllllllllllccccccccc::::::::::::::;;;;;,. 
 cdxxxxxxxxxxxxxxxxkkkkkkkkkkkkkkkkkOOOOOOOOOOkkkkkkkkkkkkkxxxxxxxxdddddddddoooooooollllllc' 
 :dddddddddddddddxxxxxxxxxkkkkkkkkkkkOOOOOOOOkkkkkkkkkkkkkkkkkxxxxxxxddddddddoooooooooooool, 
 :oddddddddddddddxxxxxxxxxxkkkkkkkkkkOOOOOOOOOOOkkkkkkkkkkkkkkkkkkkxxxxxxxddddddddddddddddd, 
 :ddddddddddxxxxxxxxxxxxkkkkkkkkkkkOOOOOOOOOOOOOOOOOOOkkkkkkkkkkkkkkkxxxxxxxxxxxxxxxddddddd; 
 cddxxxxxxxxxxxxxxxxxxxkkkkkkkkkkOOOOOOOOOOOOOOOOOOOOOOOOOOOOkkkkkkkkkkxxxxxxxxxxxxdddddddd; 
 cdxxxxxxxxxxxxxxxxxxxxkkkkkkkkkkOOOOOOOOOOOOOOOOOOOOOOOOOOOkkkkkkkkxxxxxxxxxdddddddddddddd, 
 cdddxxxxxxxxxxxxxxxxxkkkkkkkkkkkOOkdlcccc:;,,,;:odkOOOOOOOOkkkkkkkxxxxxxddddddddddoooooooo, 
 cdddddddddddddddddddddddxxxxxxxxc'.................',:ldxxxxxxxxxddddddooooooollllllllllll' 
 ;ccccccccccccccccccccccllllllll'.........................:loooooollllllcccccccccclcccccc::. 
 ,::::::::::::::ccccclllooooollc.............  ......     ..:ccccc::::::cl::::::::::::::::;. 
 ,::::cc::::::::::::ccccclllccc:............    ....       ..;cccc::::::lo:;;,,,,,,,,,;;;;;. 
 '::::;;;,,,,,,,,,,,;:::::;::::;..  ....  ..   .....    ..... ':::;;;;;;;;,'''',,'',''''','. 
 .,;;::;;;;;,''',',,,;;;,:,,;::;.  ..      .   ......   ....   .;;,,,,,,,''''''''....''''''. 
 .',,;,,;,,''''''.'''',,,,,,,;c::'  ...        ..   ... .       .';;;,,,;,''',,,'''......... 
 ..,';;','';;cc,;,''....''','''...                   ........     ':;;;,:;',,';,,,'';,,,,',. 
 .'',,;,.'',;:;',,''',...',,'....         ..           .......     ;ddl'::',,'''''.';;;,,,,. 
 ,,'....'',,.,''...';;...,,.              .,.   .        ...       .,;,'cc;,;c:ccc;,ccccccc. 
 .,,..'......,''.;;col:,...       ......'.......                 ...':',cl:;;c:::c;;llooooo, 
 ..'',,:lc,.,.'.'ldodcol.       ................              ......'',cdOo'.':cc;:c::;;;;;. 
 ,'':lc:,,,co;','oxxxll,  ..................                   .. .,;,,coOd,,,;:c;cdddlc;,:. 
 ,;;::;',,,ol:;;:oxkkl................     .                    ..,','.olkxl;;,,''cccc;:;'c' 
 ,c;;;,,,,,::;'.:oxkd'..............       ..        .         .;,,,....okkx'';''.,;'c:,,::. 
 .,'',,,,:odoo;.:oxd'...'........'..       ..                 .,,;:,'...dkkx,,'..';:,c;..;;. 
 ..'...';cxxxd:,cdl...','........'..         .  ...         ...,,ldc,.;;codx:'',.''';,'..';. 
 ;;.';:c:cdxxlldxl'..,;,'';,.....'....   .......             ..:lddd:...'ccl:.';;:,',,...':. 
 ,;'.,;;:;,:cllxl,,,;;;,,:::;,''',.....  ,:;'...   .,;'.      ..cddd:....,cc::c:cl:,,c,..''. 
 ':;,;,.'::::;;c;;;;::,;cccc::;,',.....  .::::;;;..,clc.........':ddl....,cc,'cccc, .',''... 
 .;clc:'';cc;,:::::cl:,:cllccc::;,,,,;;,,,;cccccc:'.,:ld,.........ldl....,cc,.;;,,.  ..',,.. 
 .;c:;;;;;c,;cccc:clc;,:ccc::::cc;;:cc:;;;;clooolc:'.;:lk:.    ...cd:....,cc: ...:,  ..'.... 
 ..'','..;;::::::ccc;,;::::::cclolldolc:;cc:loooool:..;'.       .,o;.....'cco:.  ;c.  .. ..  
 ....'''..',,;;::cc;,,::::cloxxxxdddodd:;:c:looooll:.           .';'.....,cldo....:'.......  
 '....',...;coxkkkkxkxdxxxdxddoolllllc:::::::cc::c:::::;:' ..',,..,;,....,lloo.....'''.....  
 '....',..';coxkOOOO0000OOkxol:;,,,,,,.;,;:::loooodooollc:;,;;;;'.,;,.,:::lodxo..''... .':c. 
 ...;,,...'',;loddxxkkkkxxdoc;'........'''',,:clloddddolc:;,,',;'.';,..:::cclo,;ll:,;'...:d. 
