 ;cllllllllllllllllllooooooooooooooooooodddddddddddoool..........;cllllccccccccc:::::::::;,. 
 cxxxxkkkkkkkkkkkkkkkkkkkkkOOOOOOOOOOOOOOOOO0OOOOOOOOkkc'''...',,,cdxxxxxddddddoooooooolllc' 
 cdddddddddxxxxxxxxxxxxxxkkkkkkkkkkOOOOOOOOkdc:,;codxd;'......',,,,cxxxxxdddddooooooooooooo, 
 cdddddddddddddddxxxxxxxxxkkkkkkkkkkOOOOOOk;',,,'.............,,;',lxkkxxxxdddddddddddddddo, 
 cddddddxxxxxxxxxxxxxxxxkkkkkkkkkkkOOOOOOOl;cc:,'.......''''...''',:dkkkxxxxxxxxxxxxxdddddd; 
 cdxxxxxxxxxxxxxxxxxxxxkkkkkkkkkkOOOOOOOOOocc:;,.........,::;;;,'.';okkxxxxxxxxxxdxdddddddd, 
 cdxxxxxxxxxxxxxxxxxxxxkkkkkkkkkkkOOOOOOOOd;,;,'.........,;;;,,......cxxxxxxxdddddddddddddd, 
 cdxxxxxxxxxxxxxxxxxxxxkkkkkkkkkkkkOOkOd:'...''..........''',''.......oddddddddddoooooooooo, 
 cddxxddxddddddddddddxxxxxxxxxxxxxd:;c;..........  ...................,oooooooollllllllllll' 
 ;llllllllcccccccccclllllllllloooo;,........         .................':ccccccccccccccc::::. 
 ,::::::cc:c::::ccccclllolllllllllcl..,....          ...  .......'....':::::::::::::::::::;. 
 ,::::ccccccc:::::::cccclllllllllocc';llc::;;,,,;;:;;.. .;,... ........:;,,,,,,,,,,,,,,;;;;. 
 ,:::::::;;;;,,,,,,,;::::::::::::;,'''collllllllloooo,........ ...    .;;,'''''''''''''''''. 
 ';;::c;:;;;,,,',,,,;:::;:,;:::::;,;;,lxddooooooooooo:....... ...      ';''''''.......'''''. 
 .',;;;;:;,,,,'''.''.'',,,,,,:c:c,.''.dxddddoooollllc;        ..       .;'''.'''.''......... 
 .',,;;,,'';;c:,,,''...''',,'''.......olcodddxdxxxdddo.                 ';','',,,,'','','''. 
 .'',,:,''',;:;,;;..''...'',''........;:;c;;;:cllllooo:.                ';.''''''..';;;;,',. 
 ,,,''.'',,,',''...';,'..;;.              ;kkc,;;;:ccco.                .:,,;:;:::,,c::::::. 
 .;,..'....'',',.;,col:'.'.    .. .       .;kx;:,;lccld,.               .:;,;lc:cc;;looddoo, 
 .',',,:cc'.,.'.'loodcoc.   .... ...       .ckd;:c;;:ld:..              .cl'',;:c;::::;;:::. 
 ''':occ;;,cd,'''oxxxco;. ..........        .cdd:c:c:;;.  .             .do,',;:c;cdddlc;;;. 
 ,,;:c;,;;;ol:,;:oxxkc................         .:;:c::;'  .           .:lkxc;;,,''ccll;c;'c' 
 ,c;;;,,;,,cc,'':okkd'................            .,:,;'              .,okkd'';,'',;'c:,;:c' 
 .,,,;,,,:ooll,.:dkd'...''......''....              .',,            ....xkkd,''..';c,c:..;;. 
 ......';cxxxd:,cdl...','......'.'.....              .... ....     .,.::odxd;';,.'',;,'..';. 
 ;,',,;::ldxxlloxl'..';,'','. ...''.....              .'....     .cdc...,clo:.';;;,',,...':. 
 ,,..,;::,,:cclxl,'',;;',:::;,'''''''.....             .;....     :xc....;cc::cccl:;,c'..',. 
 ':;,;'.';;:::;c;;,;::,,c:c:::;;,,',,,'....        ':cl..,....    .dl....,cc,,cccc, .,;''..  
 ';:cc;.';cc,':::;:cl;':ccccc::;,'''',,....         ':od. .....    ol....,cc'.:;;;.  .'','.. 
 .:lc:;;;;c,;cc:::clc;,:ccc;:::::;,;;;;,'...        .,;dOc.  ..   .d:....,cc:....:,  ..'.... 
 .''','.':;::::::cc:;';::::::::cc:lllc:;'...          ...        .l:.....,ccl,.  ;c. ...  .  
 ...','....',,;;:::;',:::;:cldxxxxdoooo;''...                   .:c,.....,cldo.. 'c'.......  
 .....',..';coxxxxdoddoddddxddddollllcc;,,,,'..                ...;:;....;llol.....'''.....  
 '....',.'';coxkOOOO0000Okkdoc:;'''','.,',;,'..                 ..;:,.;:;:oodxl....... .';:  
 ...;''...'',:lodkkkkkkxxddlc;'..............                   ..;:,..ccclloo:;c::......:d. 
