 ;cllllllllllllllllooooooooooooooooooooooooooooooooooool;...;...:cllllllccccc::::::::::::;;. 
 cxxxkxxkkkkkkkkkkkkkkkkkkkkOOOOOOOOOOOOOOOOOOOOOOOOOOo'........'..;lxxxxdddddddoooooooolll' 
 cdddddxxxxxxxxxxxxxxxxkkkkkkkkkkkkkOkOOOOkkkkkkkOOOOOkd'.......'....,oxdddddddoooooooooooo, 
 cdddddddxxxxxxxxxxxxxxxxxkkkkkkkkkkkkkkkkkkkkkxl;,'.''......''''.''''lxxxxdddddddddddddddd, 
 cddddxxxxxxxxxxxxxxxxkkkkkkkkkkkkkkOOOOOOkOkl'.....  ......''''..''',oxxxxxxxxxxdddddddddd; 
 cxxxxxxxxxxxxxxxxxxxkkkkkkkkkkkkOOOOOOOOOkc............   ......','':dxxxxxxxxdddddddddddd, 
 cxxxxxxxxxxxxxxxxxxxxkkkkkkkkkkkkOOOOOOOk:,;;'........        .....,cxxxxxxxdddddddddddddd, 
 cdxxxxxxxxxxxxxxxxxxxkkkkkkkkkkkkkOOkkkl;,:,........................,xddddddddddoooooooooo, 
 cdxxxxxxxddddddxxxxxxxxxxxxxxxxxkx::ll,..,,...........''.............lddoooooollllllllllll' 
 ;lllllllllllllllllllllllllloooooo;,...............   ...'............'ccccccccccccccccc:::. 
 ,::::ccccccccccccccclllllloolllllcl..,...  .........  .......'.......,:::::::::::::::::::;. 
 ,::ccclo::cccccccccclllllllllllllcc':lc'.....',,;,'..................':;;,,,,,,,,,,,,;;;;;. 
 ,:ccc:;:;;;;;;,;;;;;::::::::::::;,''.clllllccccclllc'..     .........,l:,,'',''''','''''''. 
 ';;:::;:;;;,,,,,,;;;:::;:;;;::::,.''.cdooollllllllll;..... .  . ......;:'''''''.....''''''. 
 .',;:;;:;,,,,'''.'''',,,,,,,:ccc,....oddooollccclccc,...  ............,c,'''''''''......... 
 .';,:;,;'';;c:,,,,,'.'',,;,'''.......llcoodoodddddddc.      .....     .;;','',,,,'',''''''. 
 .'',,:,''',;c;,;;''',...'','''....'';l:,c;,;::llclloo;.       ..     ..cc'','''''.';;;;;',. 
 ','''''';,'',''...',,'..,;.   .........',oOk:,,,,::cco'            ....:o;;;c;:::,,::::::;. 
 .;;..''..''';',';,col:'.'.  ..........',,;oOd;;,,lccld;.              .'l;,;lcccl;;oooddoo, 
 .',',,;cc'.'.'''lolococ.   .'........',,,',dOo;;:;,:ldc...             .oo,',::c;::::;;:::. 
 ,'':occ:;;cd,'''oxxxll:. ............',,,,''oxd;:;::;;'  .    ..     ..'xd,',;:c;cddolc;;:. 
 ,;;cl:,,;;ol:;;:oxxxl'....''.........'','''..';:,:c::,,  .        ...'clkxl;:,,,'clll:c,'c' 
 ,l:;;,,;,,cl;'':dkkx,....''.........'..........  .,:,,,      .......'.;okkx',,,'',;'c:;;:c' 
 .;,,:;,,:ooll,.:dxd'...'''..'''''...............   .',;.   ............dkkx,',..';c,c:..;;. 
 ..'...';cxxxx:,cdo'...,''.....'.'.........  .....   .... ..........,.;:oxxx;,;;.'',;,'..';. 
 ,;',,;::lxxxlloxl'..';,'','. ...''......... .,'..    ,''.........ld:...,lloc..;;;,',,...';. 
 ,;..,::c;;clclxl,'',;;,,:::;,''','''''',;;;,,,;'..   .:c.........cdc....;cl::cccl:;,c'..,;. 
 ':;,;,.':;:::;c;;,;::,,:cc::::;;,,,,;,;',;;;;;;;..;col,cc........,dl....,cl,'cccc,..,;',..  
 '::cc;.';:c;':::;:cl:,:cccccc:;;,',,,,,'';::;;;:,..:cld,c;.......'oo....,cc'.::;;.  .'','.. 
 .:lc::;:;l,;cc:::clc;,cclc::::cc;,;;:;,,,;:cccccc,''::dOo;.......'dc....,cc: ...:,  ..,.... 
 '',','.,:;:c::::ccc:,;:::::::cclcollc:,,;;:clllllc,......    ....lc.....,ccl;.  ;c.  ..  .  
 ...','....,,,;;:cc;',:::::clxkOkkxdodo;,;c:coooool;.       .  ..:l,.....,lldo. .'c'.......  
 .....',..':lodxxddodooodddxxxxddoloolc:;;;;::::::;;;;;,' ....,,'.;:;'...,lldo.....'''.....  
 '....',.'';loxkOOOO0000OOkxoc:;,,,,,'.,,;;::loooddoolol:::::::;'.;:,';:::oldxl....'.. .,;:. 
 ...;''...'',:loxkkxkkkxxdooc;''..........''';::cllooddolc;,,,;:'.,:,..cc:llooc,c::......:d. 
