 ;clllllllllllllllllllooooooooooooooooooodooooooooooooooooooooooollllllcccccc::::::::::::;,. 
 cxxxxxxxkkkkkkkkkkkkkkkkkkkkOOOOOOOOOOOOOOOOOOOOOOOOOOOOOkoclxkkkkkkxxxxxdddddoooooooollll' 
 cddddddddxxxxxxxxxxxxxxxkkkkkkkkkkkkkkkkkkkkkkkkkkkkkkkdc,.....';:loxxxddddddooooooooooooo, 
 cddddddddddddddxxxxxxxxxxkkkkkkkkkkkkkkkkkkkkkxl:,'',;;..........''':dxxxxxddddddddddddddd, 
 cddddddxxxxxxxxxxxxxxxxkkkkkkkkkkkkkkkkkkkkko;..    ..............'',dxxxxxxxxxxxddddddddd; 
 cdxxxxxxxxxxxxxxxxxxxxkkkkkkkkkkkkOOOOOOkkd,.....   ...............'cxxxxxxxxxxxdddddddddd, 
 cdxxxxxxxxxxxxxxxxxxxxkkkkkkkkkkkkOOOOOOko'.......   ..  ..........'oxxxxxxxdddddddddddddd, 
 cdxxxxxxxxxxxxxxxxxxxxkkkkkkkkkkkkkkkkdc;',;;,'........    .........:xxddddddddddooooooooo, 
 cdddddddddddddddxxxxxxxxxxxxxxxxxx::ll...,;,'.......................'dddoooooollllllllllll' 
 ;llllllllcccccclllclllllllllooooo;,......',,...............'.........,ccccccccccccccccc:::. 
 ,::::::cccc::::cccccclllllllllllccl.',. ...'...............''........';;:::::::::::::::::;. 
 ,::::ccc:::::::::cccclllllllllcll:c':c;..............................';;;,,,,,,,,,,,,;;;;;. 
 ,:::::::;;;;;,,,,,;;;:::::::::::;,''.cllccc::c:cc:;'..   ............'c;,''''''''','''''''. 
 ';;;::;;;;;,,,',';,;;::;:,;;;:::,....coooollllllllll'  ...  ..........;,'''''''.....''''''. 
 .',,;;;:;,,,,'''.''.',,,,,,,:ccc,....oddooollcccccc:'...    ..........':'''.'''..'......... 
 .',';;,,'';,::,,',,...',,;,''........lcclooooooodooo:.      .......   .,;','',,,,'','''''.. 
 .'',,:,''.,::;,;;'..'...'','''.....',l:,c;,;::llcllll,        ....   ..::''''''''.';;;;,,,. 
 ',''''.',,'','....',,'..,;.   .........',lkx:'',,;:::o.            ....:l;,;:;;::,,:::;;:;. 
 .;,.......'',''.,,col:'.'.  ...........,',oOd,;,,c:ccd,.             ..'l;,;lcccl;;oodddol, 
 .'''',;c:'.'.''.coloco:.   ..........'',,''dOl;;:;,:cd:..             ..oo'',;:c;::::;;::c' 
 ''';lcc;;,:d''''oxxxco:. ............'',,,.'oxd;:;:;,;.  .           ..,ko,',;:c;cddolc:;;. 
 ,,;cc;,,,;ol:,;:oxxxc'....'...........'''''..',:,:c::,'  .        ...'cokxc;;,,,'clll:c,'c' 
 ,c;;;,,;,':c;'':okkx,....'.....................  .,:,,'      .......'.;okkd'',,'.,;'c;;;::' 
 .;,,:,',:locc,.:dxd,...'''....'''...............   .',;    ............dkkx,''...;c,c:..:;. 
 ......';cxxxd:,cdo'...,'......'.'.........  .....   '..............,.;;odxx;';,.'',;,'..';. 
 ,,'',,::lxxxlloxl'..';,'','  ...'.......... .,'..    '''........'ld:...,clo:.';,,,',,...';. 
 ,,..,;::;;ccclxl,'',;;',:::;,''''''''''',;;,,,;'..   .::.........ldc....;cc::cccl:;,c'..,,. 
 ';;,;'.';;;::;c;;,;::,,::c:::;;,,',,,,,',;;;,,;;..;:lc,cc........,dl....,cl,,cccc,..,;.,..  
 ';::c;'';:c,'::;;:cc;':ccccc::;,'''',,''';;:;;;;,..:cod,:;.......'oo....,cc'.::;;.  .'','.. 
 .:lc:;;;;l,,cc:::clc;,cccc::::::;,,;;;,,,,:cccc::,'.::oOd;.......,d:....,cc;....:'  ..,.... 
 .',','.':;;c::::ccc;';::::::::cccllll:,,;;;cllllcc'..'...    ....lc.....,cll,.  :c.  ..  .  
 ...'''....',,;;:c:;',::::::lxkOkkxdooo;,;:;cllloll,    .      ..:l,.....,cldo.  'c'.......  
 .....''..';lodxxddodooododxdxxxdollllc:;,;;:::;:::;,,;,. ....,,'.;:;....,lldl.....'.'.....  
 '....',..';coxkOOOO0000Okkdoc:;'',,,'.,,,;;:llooodoollc:::;:::;'.;:,';:;:lldxl....'.. .';:  
 ...,''...'',:ldxkkxkkkxxddl:;,'..........''',::ccllooollc,',,;:'.,:,..cc:ccooc,:::......:d. 
