 ;cllllllllllllllllooooooooooooooooooooooooooooooooooooc,..;...,clllllllccccc::::::::::::;;. 
 cxxxkxxkkkkkkkkkkkkkkkkkkkkOOOOOOOOOOOOOOOOOOOOOOOOOk;'.......''';ldxxxxdddddddoooooooolll' 
 cdddddxxxxxxxxxxxxxxxxkkkkkkkkkkkkkkkOOOkkkkkkkOOOkkdc,.....'',''...cdddddddddoooooooooooo, 
 cdddddddxxxxxxxxxxxxxxxxxkkkkkkkkkkkkkkkkkkkkxc;,,'.......'',,'.....,xxxxxdddddddddddddddd, 
 cddddxxxxxxxxxxxxxxxxkkkkkkkkkkkkkkOOOOOOkd:'......  .......''''''..;xxxxxxxxxxxdddddddddd; 
 cxxxxxxxxxxxxxxxxxxxkkkkkkkkkkkkOOOOOOOOkc',,'.....       .......'';lxxxxxxxxxdddddddddddd, 
 cxxxxxxxxxxxxxxxxxxxxkkkkkkkkkkkkOOOOOOO:;:,'............  ........'lxxxxxxxdddddddddddddd, 
 cdxxxxxxxxxxxxxxxxxxxkkkkkkkkkkkkkkOOOkd;:;,..........''..'.........;dddddddddddoooooooooo, 
 cddxxxxxddddddxxxxxxxxxxxxxxxxxxxdc:lo:..,,'...........,,,;,'.......'cddoooooollllllllllll' 
 ;lllllllllllllllllclllllloooooooo;,......................',,,'.......'ccccccccccccccccc:::. 
 ,::ccccccccccccccccclllllllollllccl......  .................'........';::::::::::::::::::;. 
 ,:colccccccccccccccclllllllllllllcc':c:.....';;:ll:;...   ...........';;;,,,,,,,,,,,,;;;;;. 
 ,:ccc:::;;;;;;;;;;;;::::::::::::;,''.clllllcccccllol'.. .............'l;,,'','''',''''''''. 
 ';;:::;;;;;,,,,,,;;;:c:::;;::::c,'''.cdooollllllllll'....... ........';;'''''''.....''''''. 
 .',;:;;:;,,,,,''.'''',;,,,,;:ccc,....oddooollcccccc:,..   ............;:,'''''''''......... 
 .';,:;,,'';;c:,,,,,'.'',,;,'''.....''olcooooodddddooc.      ....     ..:;',',,,,,'',''''''. 
 .',,,:,''',::;,;;''',...'','''....'':o:;c;,;::llclooo;        ...    ..l:'','''''.';;;;;',. 
 ','''''',,'',''...,,,'..,;.   .........',oOx:,,,,;:cco.           .....:l;;;c;:::,,::::::;. 
 .;;..''..''',',';,col:'.'.  ..........',,;oOd;;,,cccld,.              .,l;;;lcccl;;oooddoo, 
 .',',,:cc'.'.'''lolococ.   .'........',,,',dOl;;:;,:ld:..              'oo,',::c;:c::;;:::. 
 ,',:occ:;;cd''''oxxxlo:. ............',,,,''dxd;::::;;.  .    ...    ..,kd,',;:c;cddolc:;:. 
 ,;;cl;,,;;ol:;;:oxxkc'....''.........'',,''..';:;:c:;,'  .       ....'cokxc;:;,,,llll:c,'c' 
 ,l:;;,,;,,cc;''cokkx,...'''.........'..........  .,:,;,      .......'.;okkd'';,'';;'c;;;:c' 
 .;,,:,';:oolc'.:dkd'...'''..'''''...............   .',;.   ............xkkx,',..':c,l:..:;. 
 .'....';cxxxx:,cdo'...,'..'...'.'......... ......   .... .........',.;:oxxd;';,''',:,'..';. 
 ,,',,;::lxxxlloxl'..';,'',' ....''......... .,'..   .,''........'ld:...,clo:.';;;,',,...':. 
 ;,..;::c;;clllxl,'',;;',:::;,'',,''',''';;;;,,;'..   .:c.........ldc....;cl::cccl:;,c'..,;. 
 ,:;,;'.,:;::::c;;;;::,,:cc::::;;,,,;;,,',;;;;;;;..;coc,lc........,dl....;cl,,cccc,..,;',..  
 '::cc;'';cc;,:::::cl:':cccccc:;;'',,,,''';:::;;:;.'ccod,c;..'....'oo....,cc'.::;;.  .,','.. 
 .:lc::;;;l;;cc:::clc;,cclc:::::c;;;;:;,,,;:ccccc:,''c:dOo;.......,d:....,cc:....:'  .',.... 
 .,,','.,:;:c::::ccc:,;:::::::ccccllcc:;,;;:clolllc'.....     ....oc.....,ccl,.  :c. ...  .  
 ...','....,,,;;:cc;',:::::coxOkkkxdodo;,;c;loooool,    .      ..:l,.....,lldl. .,c'.......  
 .....,,..':lodxxddodooodddddxxddllllcc:;;;;:::::::;;;;,' ...',,'.;c;'...,lldl.....'''.....  
 '....',.'';loxkOOOO0000Okkdocc;,,,,,'.,,;:::loooddoolll:::::::;'.;:,';:::lodxl....'.. ''::  
 ...;''...'';:loxkkkkkkkxddoc;,'..........''';::cloooodolc;,;,;c'.;:,.'ccclloo:;cc:'.'...:d. 
