 ;cllllllllllllllllllllllooooooooooooooooooooooooooooooolllllllllllccccccccc::::::::::::;;,. 
 cxxkkkkkkkkkkkkkkkkkkkkkkkkOOOOOOOOOOOOOOOOOOOOOOOOOOOOkkkkkkkkkxxxxxxxdddddddddddooollllc' 
 cdxxxxxxxxxxxxxxxxxxxkkkkkkkkkkkOOOOOOOOOOOOOOOOOkkkkkkkkkkkkkkxxxxxxxddddddddddoooooooool, 
 cddddddddddddxxxxxxxxxxxkkkkkkkkOOOOOOOOOOOOOOOOOOkkkkkkkkkkkkkkkkxxxxxxxxdddddddddddddddd, 
 cddddxxxxxxxxxxxxxxxxxkkkkkkkkOOOOOOOOOOOOOOOOOOOOOOOOOOOkkkkkkkkkkkxxxxxxxxxxxxxxxddddddd; 
 cxxxxxxxxxxxxxxxxxxxxkkkkkkkkkkOOOOOOOOOOOOOOOOOOOOOOOOOOOOOOkkkkkkkkkxxxxxxxxxxxxxxdddddd; 
 cxxxxxxxxxxxxxxxxxxxxkkkkkkkkkkOOOOOOOOOOOOOOOOOOOOOOOOOOOOOkkkkkkkxxxxxxxxxdddddddddddddd, 
 cxxxxxxxxxxxxxxxxxxxxxkkkkkkkkkkOOOkdooolc::::clxkOOOOOOOOOkkkkkkkxxxxxdddddddddddoooooooo, 
 cddddddddddddddddxxxxxxxxxxxxxxxo;'...............,;cldkkkkkkxxxxxxxddddoooooooollllllllll' 
 ;lllllllcccccccccccllllllllooll,........................,lodooooooollllcccccccccccccccc:::. 
 ,:::::cccccc::ccccclllllllloll:...........................;llllcccl::::::::::::::::::::::;. 
 ,:cccccccc:::c:cccccllllllllllc............   ....        .;cccccldlc:;;;,,,,,,,,,;,;;:;;;. 
 ,:ccc::;;;;;;,,,,;;;::::::::::;..  ..... ..   .....    .....'cccc:c:;;;;,'',,''''',''','''. 
 ';::::;:;;;,,,',,;,;:::::;;;;;,.  ..      .  ......  ....... .;;;,,,,,,,''''''''...'''''''. 
 .',;;;;:;,,,,'''.'''',,,,,,,cc:;. .... .      ..  ..  ....    .,;;;;,,,;,'''''''''......... 
 .';,:;,,'';,c:,,,,'''.'',;,'''...   ..              ......      ,;;;;;,c;',,,,,,,'',''''''. 
 .',,,:,''.;::;,;;''''...'','''..        ...         ........    .:dooc.:;''''''''.,;;;;,,,. 
 ','''.'',,'','...',;,'..;;.              .:.   .      .......    .,:c,'cc;;;:;;::',::::;;;. 
 .;,..'...''',''';,coc:'.'.       .....''........        .         .,:.,cc;;;lccll;:oooddoo, 
 .',',,;c:..'.'''olodco:.       ......'''.......                 ...',,cokl,',::c,::::;::c:' 
 '',:occ;;,co''',dxxkco;. .............'.....                ......,,';coOo'',;:c;cddolc;;;. 
 ,;;cl;,,,;ol:,;:dxkkc'.................                .        .,,;,'ookxc;;,,',llll:c,'c' 
 ;c:;;',;,,cc;''cdkkx,..............       .         . ..       ',,,...;oxko'';,'';;,c;;;:c' 
 .;,;:,,,coolc,.:dkd'...'...........       ..         ..       ,,;:,....xkkd'''..':c,l;.';;. 
 .'....';lxxxx;,cdo'..','........'..        ..               ..,,co;'.;;odxo;';,''';:;'..';. 
 ,,',,;::lxxxlloxl'..,;,'',.  ...'....     . ''.....         .':lddo;...,clo:.';,;,',,...';. 
 ,,..;::c;;ccloxl,,';:;,,:::;,'.''.....   ';,,;'..     ....  ..'oddd:....;cc::cccl:;,c...,;. 
 ,:;,;'.,;;:c::c;;;;::,,cccc::;,,''....   .;,....   .,,.     ...,lddc....;cc';cccc,..,;',..  
 '::cc;.';cc,,:::;:cl:,ccccccc:,,''....    ;::,'''..;cd:..  .....,odl....;cc..:::;.  .,'''.. 
 .:lc:;;;:c,;ccc::clc;,cclc:c:ccc;;;;;;,',,clolllc;''::dx:.   ....od;....;cc;....:.  .''.... 
 .',','.,c;:c::::ccc;,;::::::ccllcodolc::cccooooool;.,:,;.      .;d:.....,ccl'. .:c. ... ..  
 ...','....,,,;::cc;';:::::cldxxkxddodo::clcodddddoc.           .;:'.....,cldc.  ,c........  
 .....,,..':lodxxddodooddddxdxddoooooll:::::clcccc:;;;,,,.  ..''..;;,....;lldc.....'''.....  
 '....,'..';ldxOO0OO0000OOkxolc;,,,;;'';;;::coddddddoool:,,,:;;;..;:'.;;;:lodxc...''.. ''c:  
 ...;',...',;cloxkkkkkkkxddoc:,'.......',,,;;:cclooddddolc;,,,;:..,;'.'cccclod:;cc:.....'co  
