 ;clllllllllllllllllooooooooooooooooooooooooooooooooooool;':;...clllllllccccc::::::::::::;;. 
 cxxxkxxkkkkkkkkkkkkkkkkkkkkOOOOOOOOOOOOOOOOOOOOOOOOOOo;........'.':oxxxxdddddddoooooooolll' 
 cdddddxxxxxxxxxxxxxxxxkkkkkkkkkkkkkOkkOOOkkkkkkOOOOOkkc'...........':dddddddddoooooooooooo, 
 cdddddddxxxxxxxxxxxxxxxxkkkkkkkkkkkkkkkkkkkkkkko:;,,;:,.........'''',oxxxxdddddddddddddddd, 
 cddddxxxxxxxxxxxxxxxxxxkkkkkkkkkkkkOOOOOOOkkd:..... .........'''..'';dxxxxxxxxxxxddddddddd; 
 cdxxxxxxxxxxxxxxxxxxxkkkkkkkkkkkOOOOOOOOOOx;......... ..........'''':dxxxxxxxxdddddddddddd, 
 cxxxxxxxxxxxxxxxxxxxxxkkkkkkkkkkkOOOOOOOOd''''.......      ........,lxxxxxxxdddddddddddddd, 
 cdxxxxxxxxxxxxxxxxxxxkkkkkkkkkkkkkkOOOxl:';;,'............  ........;dddddddddddoooooooooo, 
 cddxxxxxxddddddxxxxxxxxxxxxxxxxxkxc:ll'..,;'..........'..............oddoooooollllllllllll' 
 ;lllllllllllllllllllllllllloooooo;,.......'........ ...''............,ccccccccccccccccc:::. 
 ,::::ccccccccccccccclllllloolllllcl..;... ........    ....'','.......';::::::::::::::::::;. 
 ,::ccccclo::cccccccllllllllllllllcc':lc'......''.....  ...............;:;,,,,,,,,,,,,;;;;;. 
 ,:ccc:::;;;;;;;;;;;:::::::::::::;,''.clllllccccclcc;...  ............'cc,''',''''','''''''. 
 ';;:::;:;;;,,,,,,;;;:::;:;;;::::,'''.cdooollllllllll,..... .. ........';'''''''.....''''''. 
 .',;:;;:;;,,,'''.'''',,,,,,;:c:c;....oddooolllcclccc,...   ............:,'''''''''......... 
 .';,:;,;'';;cc,,,,,'..',,;,'''.......llcoooooddddddoc.      .......   .,;','',,,,'',''''''. 
 .'',,:,''',;c;,;;''',...'','''.....';l:,c;,;::llclllo:.       ..      .:c'','''''.';;;;,',. 
 ,,'''''',,'',''...,,,'..,;.   .........',oOk:,,,;::cco'            ....:o;,;c::::,,:::::::. 
 .;;..''...'';',';;col:'.'.  ..........',,;lOx;;,,lccld;.             ..'l;,;lcccl;;looddoo, 
 .',',,;cc'.'.'''lolococ.   .'........',,,''oOo;;:;;:ldc...             .oo,',::c;::::;;:::. 
 ,'':occ;;;cd,'''oxxxll:. ............',,,,''oxd::;::;;.  .    ..     ..'xd,',;:c;codolc;;:. 
 ,;;cc:,,;;ol:;;:oxxxl.....''.........'',,''..';:,:c::;,  .        ...'clkxl;:,,,'clll:c;'c' 
 ,l:;;,,;,,cc;'':dkkx,....''.........'..........  .,:,,,      .......'.,okkx'',,'',;'c:;;:c' 
 .;,,;;,,:ooll,.:dxd,...'''..'''''...............   .',;.    ...........dkkx,',..';c,c:..;;. 
 ..'...';cxxxd:,cdo'...,''.....'.'.........  .....   .... ..........;.;:odxx;,;,.'',:,'..';. 
 ,;',,;::lxxxlloxl'..';,'','. ...''...........,'...   '',.........ld:...,cloc..;;;,',,...':. 
 ,,..,::c;;clclxl,'',;;,,:::;,,',,''''''';;;,,,;'..   .:c.........cdc....;cl::cccl:;,c'..',. 
 ,:;,;,.';;:::;c;;,;::,,:cc::::;;,,,,;,;',;;;;;;;'.;col,cl........,dl....,cl,'lccc, .,;',..  
 ';:cc:'';cl;,:::;:cl:,:ccccc::;;,,,,,,,'';:::;;;;..:cox;c;.......'oo....,cc'.::;;.  .'','.. 
 .:lc::;:;l;;cc:::clc;,:clc::::cc;,;;:;,,,;:cccccc;.'::oOo;.......,dc....,cc: ...:,  .',.... 
 '',','.':;:c::::ccc:,;:::::::cclcdolcc;,;::clolllc,.....     ....lc.....,ccl;.  ;c.  ..  .  
 ...','....',,;;:c:;',:::::coxOOkkxdodo;,;c:coooool;.       .  ..:l,.....,lldo. .'c'.......  
 .....,,..':loxxxxdoddoddddddxdddollolc:;;;;:::::::;;;;,' ....,,'.;:;....,lldo.....'''.....  
 '....',.'';coxkOOOO0000OOkxolc;,,,,,'.,,;:::loooddoolll:::::::;'.;:,';:::oldxo....'.. .,;:. 
 ...;''...'',:loxxxxkkkxxdooc;,'........'.''';:cclooodollc;,,,;:'.,:,..cc:llooc,cc:......:d. 
