 .,,,,;;;:::::cccccccccclllllllllllllllcllclc:,.,cccccccccccccc:::::::::::::::::;;;;,,,,,,,. 
 ,::ccccloooddddxxxxxxxxxxkkkkkkkkkkkkxxxxxxxdc;cddxxxxxxxxdddddddddooooooooooooolllcccccc:. 
 ,ccccclloooddddxxxxxxxxxxxxkkkkkkkkxxxkxxxc,cl:lxxxxxxxxxdddddddddddddddddooooooolllllllll' 
 lkkkkkkkkxkOOOOkkkkkkkkkkkkkkkkkkkxxxxxxxd:'ldddddddoddoooooooooooooloddddddl,lddddddddddd; 
 lxxxxxxxldOOOkkkkxxkkkkkkkkkkkkxxxxxddddoooc:cllllllllcccccllllllccc:ccllllll,.clcccccclll' 
 :oolc:;:,oollc:ooollccccloolcc::;;cc::;;,,;cc:;;,''.',;:;;;,,,;:;;,,'''',,,'.. .,,,''''.,,. 
 ,::;,...'l:;'.'cc:::;;,.ccc::;,'..;::;;;,'.cc:;;,''..::;;;,,''';;,,''...','... .''..... ..  
 .,,,,''.,,,,,,,;;;;;;;;,;;;;;;,,,,,,,,,''''''''''....'''......''..........................  
 .'....';::,.::''clllllllllooooooollooooo:,';ccclocc::c:;looollcccllclc,..:;.;:::,'','',,,,. 
 .,::cclllll.coc':coooddddddddxxxxxxxxxxxxll;:lldoc::::l:ldddolccccccc:;::l;'lllcccccc:;;:;. 
 ':::cccllll;,lo,ol;coddddddddxxxxxxxxxxxddlo::llc:::::cc:ooooocc:::.;ll;:c.:llllllcccccc:;. 
 :oooddddddol.cd:lddocldxdxxxxxxxxddddol:::lolccolcccllclccllllccc;:loll;o:'oooolllllccc:::. 
 ...'',,;;;:c..c::ooddocoxxxxxdooollodl;,,,;coc:lolllllooolooool::oooll::c';::;;;,,'''...''. 
 ,ccccccccccl:.;c'llllllcclddl:llollooc;,,,,:l:;:cllccccllllloccllollll;l;'ccccccc:::;;;;;;. 
 ,ccccccccclll';l;:oooooddolddooooddddc:;;;;;::coddoooooodxdolodddooool:l.;lcccccc:::;;;;;;. 
 ,ccclllllllll;':c;oooooddddollooodxxxdcc::cllodxxddoodddxooodxxddoooo:c:'lccccccc:::;;;;;;. 
 ,cccccllllllll',l,looooodddxdc;codxxkdolllooooooddoooooocodddxxddoooo;l.;ccccccc::::;;;;;;. 
 ,ccccccllllloo;.;;;looooodddc'..;:codolllooooooolllloolc;:lloxddooool:;.ccccc::::::;;;;;;;. 
 ,cccccccclllllc'.:'llllooo:.......,:cccllllooooolllllll:;;::clodoooocc.'ccc::::::;;;;;;;;;. 
 ,::ccccccclllll'.'.;lllol'..........;c:clllloooooollolc::;,'';coooooc;.:ccc:::::;;;;;;;;;,. 
 ':::::cccclllll;;.,.lllc:..'.....,...;:cllclllllllllllccc:cl'.;cllll:.,ccc:::::;;;;;;;;;;,. 
 ':::::ccccclllll,;..:ll,','...     ..,;:::clccccccccc:;;:;:cc..llcl:,.lccc::::;;;;;;;,,,,,. 
 ';:::::cccccclll,'..'l:.,. .  .........',;:::ccc:::::;'',,;','.;cc:;',lcc:::::;;;;;;,,,,,,. 
 ';;;:::::cccccclc.:..cc.  ...',,,,;;;;::clllooooooolccc:,''....,:lc'.ccc:::::;;;;;;;,,,,,'. 
 ';;;;:::::ccccccl,:,.,c.....';:::::;;;:ccloooodddddddooooooc,'.,cl;',lc:::::;;;;;;;,,,,,,'. 
 '::;;;;;::::ccccc:.:..';'';:;,'....,,,;:cloooddddxxxxxdxxxxxxdo:;:.';::::;;;;;;;;;;,,,,,,'. 
 '::;;;;;;;,,,,,,,,....;:c;.. ...;:ccc:;,'''',,:colloodxxxxxxxkkxdc,'c;;;;,,;;;;;;;;,,,,,,'. 
 '::;;;;:,.        ..:c;.  .';;;,,'. ..      ...';'',,',,:odxxxkkkxxd:''.....;;;:;;;,,,''''. 
 ';;,,;c,.        'cc'. .;ccc.  ..    .  .......',.........',:oxxxkkkxo:,,'''',;',;,,,'''''. 
 .,;;;;.        'll'..'c;... .        '...'.....;........'...  .,ldxkkkxl;,,,,,,;,,','''''.. 
 .,,,'        .lo, .;:'   .   ..      ;l,  .   'l......;;....     .:dxkkxd:;,,;;;,;,'''''... 
 .''';,..    .dl..,c.          ;:      .       ..     .'.          .'cdkkkxolooooddl'''..... 
 ...',,'..  .o;.'l;..           .       ..'',,,,'..                   'ldxkx:''''.'''......  
 ...'',,.   c..;l.    .        .,;:;....,,,,;::::ccc::cc:;,.      ,    .:oxko.   ..........  
 .....'''. .' 'c.             .',;:;''''''',,,',,;;',,;;;:cc,     ,.     ;ldd,.  ..........  
