 ;cllllllllllllllllloooooooooooooooooooooooooooooooooooooolllllllllccccccccccccccc::::::::;. 
 cxxxkkkkkkkkkkkkkkkkkkkOOOOOOOOOOOOOO00OOOOOOOOOOOOOOOOOkkkkkkkkxxxxxxxxddddddddooooolllll' 
 cdddddddxxxxxxxxxxxxxxkkkkkkkkkOOOOOOOOOOOOkddxxkkOOkkkkkkkkkkkkxxxxxxxxdddddddddooooooooo, 
 cddddddddddddxxxxxxxxxxxkkkkkkkkkOOOOOOOOOOOkdollclooodxxkkkkkkkkkxxxxxxxxxxxddddddddddddd, 
 cdddddddxxxxxxxxxxxxxxkkkkkkkkkOOOOOOOOOOOOOOOOOOkkd::;::::::cloodxxkxloxxxxxxxxxxxxxddddd; 
 cdxxxxxxxxxxxxxxxxxxkkkkkkkkkkOOOOOOOOOOOOOOOOOOOOk:;lxkkkkxxolc:;;,;:::cloddxxxxxxxdddddd; 
 cdxxxxxxxxxxxxxxxxxxxxkkkkkkkkkOOkl:;;;,'',:lccldx:,cdOOkkkkkkkkkxxxo:;.,,'..';;::cloodddd, 
 cdxxxxxxxxxxxxxxxxxxxkkkkkkkkkkkd,.................,;dxkkkkkxxxxxxxxl;;.,... '::'.......',. 
 cdddddxxddddddddxxxxxxxxxxxxxxxo'......................';coollloolod:;,..    ,;. .:cc::;,'. 
 ;llllllclcccccccccclllllllloool'....................    ..,cool:,,;;;,;;;...    ,ccccc;:::. 
 ,::::::ccccc:ccccccclllollllll;.............   ........   .,cccc;;,,.    .......'::::::;;;. 
 ,::::cccccccccc::cccclllllllllc;...........   ....      ....',,;;;,.    ...     ..',,,,,'.. 
 ,:::::;;;;;;;,,,,;;;:::::::::::::'..  .       ....          ':;,'....  ...       .......... 
 ';;:::;;;;;,,,,,,,,;;::;:;;;::::'         .  ....           .;:;;,,'....         ....''.''. 
 .',;;;;;;,,,,'''''''',,,,,,;:c;.          ......             .',;,'.......................  
 .',';;,,'';;c:,,',''.'',,;,''.          .,.                  .  ....',,c;','..,;,'',.''...  
 .'',,:,''.,::;,;;''''...'','.          .c;'.           .       .;ldddl.::',,',.''.';;;;,',. 
 ','''..',,'','....',,'..,;.      ....    .c.           .........,c::c,'ll;,;c:,.  ':::::::. 
 .;,.......'',',.;,col:'.'.      .......                 .....   .c;,:.,cc:;;lc:.  ,looddoo, 
 ..''',;c:..'.''.lolococ.   .........                            .;;,,,coOo'',;:. .c;:;;:::. 
 ''';lcc;;,cd''''oxxkco;. ...........                           .',,,,,ldOd,',;:c;cddolc;;:. 
 ,,;cc;,,,;oc:,,:oxkkc...............  .....                    .:,,;,'ookkl;:;,,,llll:c,'c' 
 ,c;;;',,,':c;'':okkx,...............'''''''.                  .,,',...,okkd'';,'';;'c;;;:c' 
 .;,,;,',:oocc,.:dxd'...''....'','...''.......                .';;;,....xkkx,',..':c,l:..;;. 
 ......';cxxxx:,cdo'...,'......'.,'...........               ..',co;'.;;odxx;,;,.'',;;'..';. 
 ,,.,,,::lxxxlloxl'..';,'.,' ....'''..........,.        .    .':cdoo;...'clo:..;;;,',,...';. 
 ,,..,:::;;:cclxl,'',;;',:::;,'',,,,,,,,,;;;;;;;. .:;,.....  ...lddo:....;cc::ccco:;,c'..,,. 
 ';;';'.';;;::;c;;;,::,,:cc:::;;;,,,;;;;';::;;;;:..:col.........'cddc....,cc,,cccc,..,;',..  
 ';:::;.';:c,':::;:cl;,:cccccc:;;,,,,;;,',;::::::;..;:od.........'odl....,cc'.:::;.  .'','.. 
 .;lc:;;;;c,,cc:::ccc;,:ccc::::cc;;;::;;,;;:llllcc;''::okc.  .....co;....,cc;....:'  .',.... 
 .',','.':;:c::::ccc;';::::::::clclollc;;:::looooll;.':''.      .,o:.....,ccl,.  :c. ... ..  
 ...','....',,;;:cc;',::::::ldxxkxdoooo;;:c:loooooo:.           .;:'.....,cldo. .,c'.......  
 .....',..';coddxddodooododxdxxxooooolc::;;;:cc::::;,;;,,. ...''..,;,....,lldl.....'''.....  
 '....',.'';coxkO0OO0000OOkxocc;,,;;;'.;;;::cooooddoollc:;;;;;;,..,;'.,;;:lodxl....'.. .'::  
 ...,''...'';:loxkkkkkkkxddlc;,'.......'''''';::clloooolc:,',',;..';'..cc:ccooc;:c:......:d. 
