 ;clllllllllllllllllllooooooooooooooooooodddooooooooooooool;coooollllllcccccc::::::::::::;,. 
 cxxxxxxxkkkkkkkkkkkkkkkkkkkkOOOOOOOOOOOOOOOOOOOOOOOOOOOOk:.':llooxxkxxxxxdddddoooooooollll' 
 cddddddddxxxxxxxxxxxxxxxkkkkkkkkkkkkkkkkkkkkkkkkkkkOkko,.........,,lxxxddddddooooooooooooo, 
 cddddddddddddddxxxxxxxxxxkkkkkkkkkkkkkkkkkkkkxo:,'.','...........'''oxxxxxxddddddddddddddd, 
 cddddddxxxxxxxxxxxxxxxxkkkkkkkkkkkkkkkkkkkkd;...    ..............';dxxxxxxxxxxxxddddddddd; 
 cdxxxxxxxxxxxxxxxxxxxxkkkkkkkkkkkkOOOOOkkx:...... ................'cxkxxxxxxxxxxdddddddddd, 
 cdxxxxxxxxxxxxxxxxxxxxkkkkkkkkkkkkOOOOOOd,',,,'...'....   .........;xxxxxxxxdddddddddddddd, 
 cdxxxxxxxxxxxxxxxxxxxxkkkkkkkkkkkkkkkkkx,;;,''......................oxxddddddddddooooooooo, 
 cddddddxdddddddddxxxxxxxxxxxxxxxxxc:lo'..;;'........................;dddoooooollllllllllll' 
 ;llllllllcccccccccclllllllllloooo;'.......''..............','........;ccccccccccccccccc:::. 
 ,::::::cccc::::cccccclllllllllllc:l... .. .................'.........';::::::::::::::::::;. 
 ,::::ccc:::::::::ccccllllllllllll:c':c'.    ...'''..... .............';;;,,,,,,,,,,,,;;;;;. 
 ,:::::::;;;;;,,,,;;;;:::;;::::::;,''.ccc:::::cccllc:..    ...........,l;,''''''''','''''''. 
 ';;:::;;;;;,,,',';,;;::;:,;;;:::,....cdooollllllllcl.. ...............;,'''''''.....''''''. 
 .',,;;;:;,,,,'''.''.',,,,,,,:ccc,....odoooolllccccc:'. .  ............,;'''.''''.'......... 
 .',';;,,'',,::',',,...',,;,'''.......occlooooooooooo;       .......  ..;;','',,,,'','''''.. 
 .'',,:,''.,;c;,;,'..'...'','''....'';o:;c;,;:cllcllll'        ...    .'c;.''''''..';;;;,,,. 
 ',''''.',,''''....',,...,;.   ..........,lkx;,',,;:ccl.            ....cl,,;:;;;:,,:::;;;;. 
 .;,..'...''',''.,,:oc;'.'.  ...........',;oOo,;,;ccccd'              ..,l;,;lccll;;oooddol, 
 .''.',;c:..'.''.loloco:.   ..........'',,''dOl;;:;,:cd;..             .'dl,',;::;::::;::cc' 
 ''';lcc;;,:d,'''oxxxco:. ............'',,,.'oxo;:;::;;.              ..;kd,',;:c;:doolc;;;. 
 ,,;cl;,,,;ol:,,:oxxxc'....'...........'''''..',:,:c:;,'  .        ...':okxc;;,,,,llll:c;'c' 
 ,c;;;,,;,,cc;'':okkx,....'.....................  .,:,,'      .........;okkd'',,'.,;'c;;;:c' 
 .;,,:,,,:locc'.:dkd,...'''....'''...............   .',;     ...........xkkx,''...;c,l:..;;. 
 ......';cxxxd:,:do'...,'......'.'.........  .....   '..............,.;;oxxx;';,.'',;,'..';. 
 ,,.',,;:lxxxlcldl'..';,'','  ...'.......... .,...    ,'.........'ld:...,llo:..;,,,',,...';. 
 ;,..;::c;;clclxl,'',;;',:::;,''''''''''',,,,,,;'..   .;:.........ldc....;cc::cccl:;,:'..,;. 
 ';;';'.';;;::;c;;,;::,,::::::;;,,',,,,,',;;;,,;;..;:cc,lc........,dl....,cl,,cccc,..,;.'..  
 ';:cc;.';:c,'::;;:cl;':ccccc::;,''',,,''';;;;;;;,..:cdd,c;.......'do....,cc'.:::;.  .'''... 
 .;lc::;;;l;,cc:::clc;,cccc::::::;,,;;;,,,,:cccc::,.'::oOo;.......,d:....,cc;....:'  ..,.... 
 .',','.':;;c::::ccc;';::::::::cc:llll:,,;;;cllllcc'..'...    ....oc.....,cll,.  :c. ...  .  
 ...','....',,;;:c:;',:::;::ldxkxxxoool,,;:;cllloll,    .       .cl,.....,cldo.  'c'.......  
 .....',..';codddddodooooodddxxxdollolc;;,;;:::;;:;;,,,,. ....','.;:;....,lldl.....'''.....  
 '....',..';coxkOOOO0000Okkdoc:;'',,,'.,,,;;:llooodoollc:;:::::;'.;:,';:;:llddc....'.. .';:  
 ...,''...'';:odxkkxkkkxxddl:;,'........''''';:::cllloollc;,,,;:'.,:,..cc:ccooc,::;......:d. 
