 ;cllllllllllllllllllooooooooooooooooooodddddddddddl'......'loollllllllcccccc::;:::' ..',;;. 
 cxxxxkkkkkkkkkkkkkkkkkkkkkOOOOOOOOOOOOOOOOOOOOOOOk,..;,..'cdkkkkkkkkxxxxddddddl;,:' .':lll, 
 cdddddddddxxxxxxxxxxxxxxkkkkkkkkkkOOOOOOOOOdc::;cd:'.,;...,lllkkkkkxxxxddddddoooc.  .,:clo, 
 cdddddddddddddddxxxxxxxxxkkkkkkkkkkOOOOOOo'....';c;.......';c:xOOkkkkxxxxxdddddo.   .';cod; 
 cdddddddxxxxxxxxxxxxxxxkkkkkkkkkkkOOOOOOd...',,'........''..'.,xkkkkkkxxxxxxxxxdoc:,... .'. 
 cdxxxxxxxxxxxxxxxxxxxxkkkkkkkkkkOOOOOOOOk'':c:,'..       .   ...,lkkkkxxxxxxxxxxxxxxxdlc'   
 cdxxxxxxxxxxxxxxxxxxxxkkkkkkkkkkkOOOOOOOkc,cl:'...            .'..'okxxxxxxddddddddddddd'.  
 cdxxxxxxxxxxxxxxxxxxxxkkkkkkkkkkkOOOOkd:..',;,,...            ......lxxdddddddddddddddoool, 
 cdddxdddddddddddddddxxxxxxxxxxxxkxc:c'....'..''..                ....lddooooooooollllllllo, 
 ;llllcccccccccccccclllllllllooooo;'.........        ....         ....;cccccccccccllccccccc' 
 ,::::::c::c::::cccccllllllllllllccc......         .......        ....':;::::::::::::::::::. 
 ,:::cccc::c::c::cccclclllllllllllcc.....          ...   ...      ..  ':;,,,,,,,,,,;,,;;;;;. 
 ,::::::;;;;;;,,,,,,;::::::::::::;,''.::::::::::clll'....'..          ,;,,''''''''',,'','''. 
 ';;;::;;;;;,,,',,,,;;::;:;;;::::,'''.lxdddddddooooo:......           .,'''''''.....'''''''. 
 .',,;;;;;,,,,''''''.',,,,,,,:ccc;....dxddxddoooolllc..               .';'''''''.'.......... 
 .';';;,,'',;c:,,''''..'',;,'''.......ollddxxxxdddddd.                 .c;','',,,,'','','''. 
 .'',,:,''.,;:;,;;'..'...'','''.......cc;l:;:ccolllooc.                 ,;'',''''..,:;;;;,,. 
 ','.'..',,'','....',,...,,.     .       .:kk:;,;;:ccc,                 ;c;,;:;:::,,::::::;. 
 .;,.......'',''.,,coc:'.'.  .  ...       .cOd;:;;lcclc.                ,c;,;lcccl;;oodddoo, 
 .''',,;c:'.'..'.loloco:.   .... .....     .lko;::;;:lc..               'xl'',::c;:c:::::::' 
 ,'':lcc;;,:o''''oxxxco;. ............      .;ld:::c:;;.                ;ko'',;:c;cddolc;;;. 
 ,,;cc;,,,;oc;,,:oxxxc.................        .;,cc::;.              .lokxc;;,,',llll:c,'l' 
 ,c;;;,,;,,:c;'':okkx,.................           .,:,;              ..;okkd'',,'';;'c:;::c' 
 .;,,;,',:oolc'.:dxd'...''......''......            .,;.            ....xkkd'''..':c,l:..::. 
 ......';cxxxd;,cdo'...,'......'.'......             ... .....  ...',.;;ddxd;';,.'',:;'..';. 
 ,,.,,;::lxxxlloxl'..';,.','  ...''.......            .'.........'od:...,clo:.';;,,',,...,;. 
 ,,..,;::;;:cclxl,'',;;',:::;,'''''''''.....     ..    .,.........lxc....;cc::cccl:;,c'..,;. 
 ';;,;'.';;;::;c;;,;::,,::c:::;,,'''''''....      .;llo..'........,xc....;cl,,cccc,..,;''..  
 ';:cc;'';:c,'::;;:cc;':ccccc:;;,'''.'......       .:cdx..........,do....;cc'.::;;.  .'','.. 
 .:lc:;;;;c,,cc:::cc:,.:cc:;::::c,,;;:;,....        .ccdOc  ......;x:....,cc;....:'  .',.... 
 .''','.,:;:c::::cc:,.',;;;;;;:cc:lolc:;'...         ....      ..'o:.....,ccl,. .:c. ...  .  
 ...','....,,,;;:c:'..,,,,;;cdxxxxdoooo;'...                    .cc,.....,cldl   ,c'.......  
 .....',..';codxxdololooooddddddollllcc,....               ...'...::;....;llol.....'''.....  
 '....',.'';coxkOOOO0000Okxxol:;,''''.....                .';;,...;:,';:;:lodxc....'.. ''::  
 ...,''...'';:lodxkkkkkxxddlc;''...... .                  ..',;...;:,.'cc:clod:;cc;'.....:o. 
