 ;clllllllllllllllllllooooooooooooooooooodooooooooooooooooooooooollllllcccccccc::::::::::;,. 
 cxxxxxxxkkkkkkkkkkkkkkkkkkkkOOOOOOOOOOOOOOOOOOOOOOOOOOOOOOklcdkkkkkkxxxxxdddddoooooooollll' 
 cddddddddxxxxxxxxxxxxxxxkkkkkkkkkkkkkkkkkkkkkkkkkkOOkkkko:,...,,;:odxxxdddddddoooooooooooo, 
 cddddddddddddddxxxxxxxxxxkkkkkkkkkkkkkkkkkkkkkkoc;,,;;;'..........',:dxxxxxddddddddddddddd, 
 cddddddxxxxxxxxxxxxxxxxkkkkkkkkkkkkkkkkkkkkkd:..    ......  .........lxxxxxxxxxxxddddddddd; 
 cdxxxxxxxxxxxxxxxxxxxxkkkkkkkkkkkkOOOOOOkkkc......  ................'dxxxxxxxxxxdddddddddd, 
 cdxxxxxxxxxxxxxxxxxxxxkkkkkkkkkkkkOOOOOOOk;........  ..  ...........lxxxxxxxdddddddddddddd, 
 cdxxxxxxxxxxxxxxxxxxxxkkkkkkkkkkkkkkkkdc;'',;,......        ........;ddddddddddddooooooooo, 
 cdddddddddddddddddxxxxxxxxxxxxxxxx::ll...';,'........................odooooooollllllllllll' 
 ;llllllllcccccccccclllllllllooooo;,.......,'.........................,ccccccccccccccccc:::. 
 ,::::::cccc::::cccccclllllllllllccl.';... ........... .....''.........;::::::::::::::::::;. 
 ,::::ccc:::::::::cccclolllllllcll:c':c;.............   ...............,;;,,,,,,,,,,,,;;;;;. 
 ,:::::::;;;;;,,,,,;;::::::::::::;,''.cllccc::::::;'..    ............'::,''''''''','''''''. 
 ';;;::;;;;;,,,',';,;:::;:,;;;;::,....coooollllllllll,.      ..........';'''''''.....''''''. 
 .',,;;;:;,,,,'''.''.',,,,,,,:ccc;....oddooollcccccc:,...    . .........:'''.''''.'......... 
 .',';;,,'';,::',',,...',,;,''........lcclooooooodoooc.      ......    .';','',,,,'',''''''. 
 .'',,:,''.,::;,;,'..'...'','''......,l:;c;,;::llcllll;.        ..    ..,c''''''''.';;;;,,,. 
 ','''..',,'','....',,'..,;.   ..........,lkx;'',,;:::o'            ....;l;,;:;;::,,:::;;:;. 
 .;,.......'',''',,col:'.'.  ...........,,,oOo,;,,ccccd,.             ..'l;,;lcccl;;oodddol, 
 .'''',;c:'.'.''.loloco:.   ..........',,,''dOl;;:;,:cd:..              .lo'',;:c;::::;;::c' 
 '.';lcc;;,:d''''oxxxco;. ............'',,,.'oxd;:;:;,;.  .           ..'xo'',;:c;:ddolc;;;. 
 ,,;cc;,,,;ol:,;:oxxxc'....'...........'''''..';:,:c:;,'  .        ...':lkkc;;,,,'llll:c,'c' 
 ,c;;;,,;,':c;'':okkx,....'.....................  .,:,,'      .......'.;okkd'',,'.,;'c;;;::' 
 .;,,;,',:locc,.:dxd,...'''....'''...............   .',;.    ...........xkkx,''...;c,c:..:;. 
 ......';cxxxd:,cdo'...,''.....'.'.........  .....   '... ..........,.;;oxxx;';,.'',:,,..';. 
 ,,.,,,::lxxxlloxl'..';,'','  ...'.......... .,'..    '''.........cd:...,clo:..;,,,',,...';. 
 ,,..,;::;;ccclxl,'',;;',:::;,''''''''''',;;,,,;'..   .;:.........cdc....;cc::c:cl:;,c'..,;. 
 ';;,;'.';;;::;c;;,;::,,::c:::;;,,',,,,,',;;;,,;;..;clc,cc........'dl....,cl,,cccc,..,;.,..  
 ';::c;'';:c,'::;;:cc;':ccccc::;,''',,,''';;:;;;;,..:cod,c;.......'oo....,cc'.::;;.  .'','.. 
 .:lc:;;;;l;,cc:::clc;,cccc:::::c;,;;;;,,,,:cccc::,'.::dOo;.......,d:....,cc;....:'  ..,.... 
 .',','.':;;c::::ccc;';::::::::cc:lllc:,,;;;cllllcc,..'...    ....lc.....,cll,.  :c.  ..  .  
 ...'''....',,;;:c:;',::::::lxkkkkxdooo;,;:;cllooll,    .      ..:c,.....,cldo.  'c'.......  
 .....',..';loddxddodooododddxxxdollllc:;,;;::::::;;,,,,. ....','.;:;....,lldl.....'''.....  
 '....',..';coxkOOOO0000Okkdol:;'',,,'.,,,;;:loooodoollc:::::::;'.;:,';:;:lodxl....'.. .';:  
 ...,''...'',:ldxkkxkkkxxddlc;,'..........',';::cclooooolc;,,,;:'.,:,..cc:lcooc,:::......:d. 
