 ;cllllllllllllllllllllllloooooooooooooooooooooooooooolllllllllllcccccccccc::::::::::::;;;,. 
 cxxkkkkkkkkkkkkkkkkkkkkkkkkkkkOOOOOOOOOOOOOOOOOOOOOOkkkkkkkkkkkxxxxxxddddddddddoooooollllc' 
 cdxxxxxxxxxxxxxxxxxxxxkkkkkkkkkkkkOOOOOOOOOOOOOOOkkkkkkkkkkkkkkxxxxxxddddddddddooooooooool, 
 cddddddddddddxxxxxxxxxxxxxkkkkkkkOOOOOOOOOOOOOOOOkkkkkkkkkkkkkkkkkxxxxxxxxdddddddddddddddd, 
 cddddxxxxxxxxxxxxxxxxxxkkkkkkkkkOOOOOOOOOOOOOOOOOOOOOOkkkkkkkkkkkkkkxxxxxxxxxxxxxxxddddddd; 
 cxxxxxxxxxxxxxxxxxxxxxkkkkkkkkkkOOOOOOOOOOOOOOOOOOOOOOOOOOOOOkkkkkkkkkxxxxxxxxxxxxxxdddddd; 
 cxxxxxxxxxxxxxxxxxxxxxkkkkkkkkkkOOOOOOOOOOOOOOOOOOOOOOOOOOOkkkkkkkkxxxxxxxxxdddddddddddddd, 
 cxxxxxxxxxxxxxxxxxxxxxxkkkkkkkkkOOkxolllcc:;;;:cdxkOOOOOOOkkkkkkkkxxxxxdddddddddddoooooooo, 
 cdddddddddddddddddxxxxxxxxxxxxxxo,................',:coxkkkkxxxxxxddddddoooooollllllllllll' 
 ;lllllllcccccccccccllllllllllll,........................':oooooooolllllcccccccccccccccc:::. 
 ,::::cccccccc:ccccclllloollollc.............  .......   ..'clcccc:::l::::::::::::::::::::;. 
 ,:cccccccccccc::ccccllllllllllc............    ...        .'ccccc::col::;,,,,,,,,,,,,;;;;;. 
 ,:c::::;;;;;;,,,,,,;::::::::::;..  ....  ..   .....    ......;cc::;;::;;,'',,','',,,'','''. 
 ';;:::;:;;;,,,',,,,;;::;:;;;;;,.  ..      .   .....   ........,;;,,,,,,,''''''''...'''''''. 
 .',,;;;:;,,,,'''.'''',,,,,,,:c:;.  ...        ..   .. .......  .;;;;,,,;,'''''''''......... 
 .',,;;,,'';;cc,,,',''.''',,''....                   ......      .;;;;;,:;',,',,,,'','',,''. 
 .'',,:,''',;:;,;;''''...'',''...         ..          ........    .lddl.:;',,'''''.,;;;;,,,. 
 ,,,.'.'',,,',''...';;'..;;.              .;.           ......     .;:,'cc;,;:::cc,,ccc::::. 
 .;;..'....'',''.;;:ol:,.'.       ......'........                  .':.,cc:;;lc:cc;;looodoo, 
 .',',,;cc'.,.'.'loodcol.       ................               .....',,coOo'',;:c;:c::;;:::. 
 ,'':occ;;,cd,'''oxxxll;. ..................                  .....',,,coOd,,,;:c;cddolc;;:. 
 ,;;cc;,,;;ol:;;:oxkkl.................                 .        .,,,'.llkxc;;,,''clcl;c,'c' 
 ,l;;;,,,,,:c;'':oxkx,..............       ..        . ..       ',,,...'okkx'';''.,;'c:,;:c. 
 .,,,;;,,:odll,.;dxd'...'...........       ..                 .',;;,'...dkkx,',..':c,c:..;;. 
 ..'...';cxxxx:,cdo'..','........'..         .   .           ..,,lo:,.;;ldxx;',,''',;,'..',. 
 ,;.,;;::ldxxlloxl'..,;;'',' ....'....     ..''. ...         ..:lddd:...'clo:.';;;,',,...':. 
 ,;..,:::;;ccclxl,,,;;:,,:::;,''',.....   .;,'''..     ...    ..lddd:....,cc::cccl:,,c'..',. 
 ':;,;,.':::::;c;;;;::,,cccc::;,''.....    ,;'...   .;:.     ...'cddl....,cc,'cccc,..,;''..  
 '::cc:'';cc;':::::ll:,ccccccc:;;,''...    ,:::;;,..;:oo.........'odl....,cc'.::;;.  .'','.. 
 .;lc:;;:;l,;ccc::clc;,:ccc::::cc;;::::;;;;cllllll;'.:;ox:.    ...cd:....,cc: ...:,  ..'.... 
 .''','.':;:c::::ccc:,;::::::cclolloolc::cc:loooool;..;,'.      .,o;.....,ccl;.  ;c.  .. ..  
 ...',,'..',,,;::cc;,,:::::codxxxxddooo:;:c:lddodolc.           .,:'.....,cldo...':'.......  
 '....',...;loxkkxxdxdddxddxddddolllllc::::::cc:cc::;;;;;. ...',..,;,....,llol.....'''.....  
 '....',.'';cdxkO0OO0000OOkxolc:,,,,;,.;;;::cooooddoooolc;;;;;;;'.,;,.,:::lodxo...'... .':c. 
 ...;,,...',,:lodxkkkkkkxddoc:''.......'''',,:cclloddddol:;,',,;'.';,..:c:cclo:;cc:','..':d. 
