 ;llllllllloooooooooooooooooooooooooooooooooooooooooooooooooooooollllllcccc,.'ccccc;...   '. 
 cxkkkkkkkkkkkkkkkkkkkkkkOOOOOOOOOOOOOOOOOOOOkkkkkkkkkkkkkkOOkkkkkkkkx;'....  .'ldo;.....'l' 
 cddddxxxxxxxxxxxxxxxxxkkkkkkkkkkkkkkOOOkkkkkkkkkkkkkkkkkkkkkkkkkkkkoc;,........'l,.....'lo, 
 cdddddddddxddxxxxxxxxxxxkkkkkkkkkkkkxkkkkkkkkkkkkkkkkkkkkkOOOOOOOkk,...................'od, 
 cdddddxxxxxxxxxxxxxxxkkkkkkkkkkkkko,.',:dxkkkkkkkkkkkkkkkOOOOOOOOOk;...................;dd; 
 cdxxxxxxxxxxxxxxxxxkkkkkkkkkkkkkkl......''coxkkkkkkkkkkOOOOOOOOOOOOk:.............'....ldd, 
 cxxxxxxxxxxxxxxxxxxxkkkkkkkkkkkkd;...........,:ldxkkkkkkxxdddxkkkOOOx..................odd, 
 cxxxxxxxxxxxxxxxxxxxkkkkkkkkkkkkkxkxdoc'..........................,::.     ........   'ooo, 
 cdddxddddddddddxxxdxxxxxxxxxxxxxxxc:ldxxo:'...... ........ .....             ......   :lll, 
 ;llllllllcccllccccllllllloooooooo;,..:ooooo:'..    .......   ...                     .::::. 
 ,::::::cccc:::cccccccllllllllllllcl'.;lllllllc:,''........   .........              .;::::. 
 ,:::ccccc:c::c:::ccccllllllllllll:c';lllllllllllllooollllcc:'...  ..               ';;::;;. 
 ,::::::;;;;;,,,,,;;;::::::::::::;,''.:lcccccc::ccclllllllclc:..    ..             ','','''. 
 ';;:::;;;;;,,,,,,;,;;::;:,;;;:::,'''.:dollllllllccllllccc::::.               .....''',''''. 
 .',,;;;;;,,,''''.'''',,,,,,;:ccc;....ldoooollcccc::::::::;;;,          ....'....''......... 
 .',';;,,'';,::,,',,''.',,;,'''.......llclooooooooooooooooolc.           ....  .','',,,,,''. 
 .'',,:,''',;:;,;;'..'...'','''......,o:,:,,,;:cccclllcccllol.            ..   .,''':::;;,;. 
 ,,,.'..',,'',''...',,'..,;..  .........',lkk:''',;:::ool:l:,              ..  ,::,,ccc::::. 
 .;,..''...'',',',,:ol:'.'.  ..........',,;lOx;,,,c::co:,;:;.                 .:ll;:oddddoo, 
 .''',,;cc'.'..'.coloclc..  .'........',,,''okd,,;,,;coc'',.                 ..cc;:c:::::cc' 
 ,'';occ;;,:d,'''oxxkll:...............',,,''dOx;;;:;,,....                  .;cl:cdddlc:;;. 
 ,;;cc;,,,;ol:,;:oxkxl.....''...........''''..dkk::::;,,'.                   .;;,,lllo:c;'c' 
 ,l;;;,,;,':c;'':oxkx,....''...................cok:,;,,,c.            .......';,,';:,l:;;:c' 
 .;,,;,,,:ooll,.:dkd,...'''...''''...............,;..',,'            ......:;,,..':c;l:..::' 
 ..'...';cxxkx:,cdo'...,''.....'.'.........  ......  ....           .....'ok:,:;'',,:;,..';. 
 ,;.,,;::cxxxlloxl'..';,'','. ...''...........''...   ..'     .     ....'lodc.';;;;',;...':. 
 ;,..,::c;;:cclxl,'',;;',:::;,''',,'''''';;,,,,;'...   .;.   ............:locclcloc;;c,..,;. 
 ':;,;,.';;;::;c;;;,::,,::::::;;;,,,,,,,',;;;,,,;.....  ;:   ............;oo;,lllc;..,:',..  
 ';:cc:.';:c;':::;:cc;':cccccc:;;,',,,,''',;;;;;;,..;oc. ;'. ............;ll,.cc::'  .',,'.. 
 .:cc:;;;;c,;cc:::cc:;,:ccc:::::c;,;::;,,,,:cccc::,..cloo;'.   ..........;llc....c,  .',.... 
 .''','.':;:c::::ccc;,;::::::::cc:cl:::,,;;;cllllcc'..'..        ..,.....;llo;.  :l. ... ..  
 ...'''....',,;;:c:;',::::::lxkxxkxdool;,;c;cllloll;             'l;.....;ooxd. .'l,.......  
 .....',...;lodxxxddxdodddodddddollllcc:;,;;:::;;;;;,,,,. .....'..;c:''..;oodd.''.''',.....  
 '....',.'';coxkO00O0000OOkxoc:;,,,,,'.,,,;;:loloooollc:,'',;;;;'.;c;';c:cooxxl....'.. .,:c. 
 ...,''...'',:loxkkkkkkkxxdoc;''..........''',;::cllooolc:;,,,;:,.,:,..clcolodl;cc:'''..':d. 
