 ;lllllllllloooollooooooooooooooooooooooooooooooooooooooooooolllllllllllccccc::::::::::::;;. 
 cxxxkkkkkkkkkkkkkkkkkkkkOOOOOOOOOOOOOOOOOOOOOOOOOOOOOOOOkkkkkkkkkkxxxxxxdddddooooooooolllc, 
 cddddddxxxxxxxxxxxxxxxkkkkkkkkkkkkkkOOOOOOOOOOkkkkkkkkkkkkkkkkkkkkxxxxxddddddooooooooolllo, 
 cdddddddddddddxxxxxxxxxxxkkkkkkkkkkkOOOOOOOOOOkkkkkkkOOOOOOOOOkkkkkkxxxxxddddddddddooooooo, 
 cddddddxxxxxxxxxxxxxxxxkkkkkkkkkkkkkOOOOOOOOOOOOOOOOOOOOOOOOOOOkkkkkkkkkxxxxxxxxxddddddddd; 
 cdxxxxxxxxxxxxxxxxxxxkkkkkkkkkkkkOOOOOOOOOOOOOOOOOOOOOOOOOOOOOOOkkkkkkkxxxxxxxxddddddddddd; 
 cxxxxxxxxxxxxxxxxxxxxxkkkkkkkkkkkOOOOOOOOOOOOOOOOOOOOOOOOOOOOOOkkkkkkxxxxxxddddddddddddddd; 
 cdxxxxxxxxxxxxxxxxxxxxkkkkkkkkkkkOOOOOOOkdooodxkkOOOOOOOOOOOkkkkkkkxxxxxddddddddoooooooooo, 
 cdxxxxxxxxxxxxxxxxxxxxxxxxxxxxkdlccol:;,'........''',,,;:oxkkkkxxxxxxdddoooooollllllllllll' 
 :lllllllllllllllllcllllloooool,....'''.....................':loooooollllccccccccccccccc:::. 
 ,:::c:cccccccccccccccllllllll:....  ...................     ..;cccc::c::::::::::::::::::::. 
 ,::::cccccccccccccccllllloollc'...  ....................       .;:::::;;,,,,,,,,,,,,,;::;;. 
 ,cccc:::;;;;;;,;;;;;::::::::::::;,''............  . ....        .;:;;;;;,''''''''','''''''. 
 ';;:::;;;;;,,,,,,,,;:::;:;;;::::,'''............  ..........  ...;;,,,,,'''''''.....''''''. 
 .',;:;;:;,,,,'''''''',,,,,,;cccl;....::'..        ...............,;;,,,,''..'''............ 
 .';';;,,'';,:;,,','..',,,;,','.'.....ol,..                ..... ...';;,c,','',,''''''''''.. 
 .'',,:,''.;:c;,;;'..'...'','''.......c::c..   .  .     .....       .':.:;.'''''''.,;;;;,,;. 
 ','''''',''','...'',,'..,;.......    ....:xd;,,,............       ..,'cc,,;;,;;;',:::;;;;. 
 .;,...'..''';''.,,coc:'.,.    ....       .lOd;;;;,..........      ....,cc;,;lccll;:ooddooo' 
 .','',;c:..'.''.llloco:.  .........       .okl;::,'..........      ...,oxc,';:::,::;::::cc' 
 '.':lcc:;,:o''',oxxkco:............     .. .oko::;,'.........        .,oOo'',;:c,cdoolc;;;. 
 ,,;cl;,,,;oc;,,:oxxk:'.............     .'. 'dOx:c,,'........        .:okd:;;;,',llol:c''c' 
 ,c;;;,,;,,cl;',cokkx,..............      .'. .,ox;,''........      ...;oxkl'',''';;,c;;;:c' 
 .;,;:;,,:loc:'.:dkd,...'.............     ..    .;'.'........  .. .....xkko'''..':c'l;.'::' 
 .'....,:cxxxx;,cdo'...,'...........        ..      ........... ....'.;;dxxo;';'..,;:;'..,;. 
 ,,'',,:;lxxxllldl'..';,'.,' .........       ..      . ...........;o,...;clo;.';,,''',...,;. 
 ,,..;::c;:lcllxl,'',;;',:::,'''''.....       ..     ............;dd;....:cc:::ccl;;;c...,;. 
 ':;';'.,;;;:::c;;,;::,,::::::;;;,''...        ..    ..'.........cdd:....;cc';cccc'..;;.'..  
 ';:cc;.,;:c;'::;;;cl:':ccccc::;,',,,..         .. .,'........  ..;dl....;cc..:::;.  .,''... 
 .:lcc:;;;c;,cc:::clc;,cccc:::::c,,,cc;'.        ,. .'.............,,....;cc;....:.  .''.'.. 
 .,,','.,c;:c::::ccc;,;::::::::cc:clc:c;'.       .:'..'..      ..........;ccl'. .::  ...  .  
 ..'','....',,;;:c:;',::::::ldxxxkxdlol;;:,.      .:.  ...       .,'.....;ccdc.  ,c........  
 .....,,..':coodddoloolooooddxxxdooooll:;:::,,'... .    .     ....;:,....;lldc......''.....  
 '....',.'';coxOO0OO0000Okkxoc:;,,,,;'.,;;::loddo;     ......,;;..;:'.,;,:lldd;....'.. ''c;  
 ...,''...',;lodxkkxkkkkxddlc;,'.......'',,,;:::;.     . .....,:..;:'.'cc:ccod:,;:;......cl  
