 ;cllllllllllllllllooooooooooooooooooooooooooooooooooooooooolclooolllllllcccccc::::::::::;;. 
 cxxxkxxxkkkkkkkkkkkkkkkkkkOOOOOOOOOOOOOOOOOOOOOOOOOOOOOOOd;'.';cclxkkxxxxxdddddddoooooolll' 
 cddddxxxxxxxxxxxxxxxxkkkkkkkkkkkkkkkkkkkkkkkOOOOOOOOOOOxc'........'xxxxxdddddddddooooooooo, 
 cdddddddddddxxxxxxxxxxxkkkkkkkkkkkkkkkkkkkkkkOOOOOOOOOx,..........lxkkxxxxxxdddddddddddddd, 
 cddddxxxxxxxxxxxxxxxxkkkkkkkkkkkkkkkkkkkkkkOOOOOOOOkOOl'........,,xkkkkkxxxxxxxxxxxddddddd; 
 cdxxxxxxxxxxxxxxxxxkkkkkkkkkkkkkOOOOOOOOOOOOOOOOxc;,,;......'..;.cOkkkkkxxxxxxxxxxdddddddd, 
 cxxxxxxxxxxxxxxxxxxxkkkkkkkkkkkkkOOOOOOOOOOOOOOo;,'''','''.''.',;oxOkkkxxxxxxddddddddddddd, 
 cdxxxxxxxxxxxxxxxxxxkkkkkkkkkkkkkkOOOkkkkOOOOOd,''',,;;;;;,'...,,...;oxxxxddddddddoooooooo, 
 cdxxxxxxxxddxxxxxxxxxxxxxxxxxxxxxxc:oxkkkkkxl,......,::c::;'...',.....'looooooooolllllllll, 
 ;lllllllllllllllllllllloooooooooo;,.,cooooc..       ..,;,'......'.......,ccccccclllccccc::. 
 ,::ccccccccccccccccllllllloolllllcl.,dlll:...............'.........     .::::::cc:::::::::. 
 ,cccccccccccccccccccllllooollllllcl'cllc:.............   ...            .,,,,,,,,;;,,;::;;. 
 ,cccc:::;;;;;;;;;;;::::::::::::::,''.ccc;.........                    .','',,''''',,'','''. 
 ';;:::;:;;;,,,,,,;;;:c:::;;::::c;'''.cooo:'.....                .  ..;,,''''''''...'''''''. 
 .',;;:;:;;,,,,''''''',,,,,,;cccc;....odooool:;,''.               ...,;,;,''''','''......... 
 .';,:;,;'';;::,,,,,''',,,;,'''.......lc:looddddddo.               ...;,c;,,,',,,,'',''''''. 
 .'',,:,''';:c:,;;''.,'..',,'''.......::,c;,;:cllll:..              ..:'::'','''''.';;;;;,;. 
 ','''''',,,',''...',,'..;;.............',ckx:,,,;:;..               .c,ll;;;:;:::,,::::;:;. 
 .;;..''..''';',';,col:'.,.  ...........,,;oOd;;,;l:.                .;lcc:;;lccll;:oodddoo, 
 .',',;;cc'.'.'''lololoc.   .'........',,,''oxl;;:;;.                .'ldOo,',::c;:c:::::cc' 
 ,'':ocl:;;cd,',,oxxklo:...............',,,..'cl::;:,            .   .'cdOd,',;:l;codolc:;;. 
 ,;;cl:,,;;ol:;;:dkxkl'....''.........'',,''..''.'cc'      .        ..,lokkc;:;,,,llll:c;'c' 
 ,l:;;,,;;,cl;',cokkx,...'''.............'..'..'. .',      .     ....'';okkd',;,'';:,c;;;:c' 
 .;,,:;,,:oolc,.:dkd,...'''.''''''..........'.....  .      .   ......'..xkkx,',..':c,l:..::. 
 ..'.'.';cxxxx:,cdo'...,,'.'...'.,......... .....'         .........,.;;oxxx;,;,.'';:;,..';. 
 ;;',,;::lxxxlloxl'..';;'','.....'''........ .,'.'.       .........;:...,lloc..;;,,',,...':. 
 ;;..;::c;;clllxl,'',;:,,:::;,'',,,,,'''';;;;;;:'.'.. ..  .........lc....;cl::ccco:;,c'..,;. 
 ':;,;,',::::c:c;;;;::,,:ccc:::;;,,,;;,;',;;;;;;:',lcod,,..........cl....,cl,,llcc,..;;',..  
 ';:cc:'';cl;':::::cl:,ccccccc:;;,,,,,,,'';::::::;''odxx;:.........lo....,cc'.:::;.  .'','.. 
 .:lc::;:;l;;cc:::clc;,cllc::::cc;,;;:;,,,;:cllccc;''ldx0d:.......,dc....,cc:....:'  ..,'... 
 '',','',:;:c::::ccc:,;::::::ccccclo:c:;;;;:lloolll;',c;;.      .,dc.....,cll,.  ;c. ... ..  
 ...',,'...,,,;::cc:,,:::::clxkxxxxdool;;;c:looooooc.       ..  .,l,.....,cldo. .'c'.......  
 .....,,..':lodxxddodooodooddxxdoollolc:;;;;::::::::;;;;;. ...','.;c;'...,lldo.....'''.....  
 '....',.',;cdxkOOOOO000OOkxdlc;,,,,,'.,,,:::looddddoool:;',,;::,.;c,';:;:oodxc....'.. .'::. 
 ...;''...',;cldxkkxkkkxxddoc:,'.......'..''';::cllooodoll:;,,::,.;:,..cccllodc,:::.....':d. 
