 ;llllllllloooooooooooooooooooooooooooooooooooooooooooolllllooolllllllllllccccc:::::::::::;. 
 cxxxkkkkkkkkkkkkkkkkkkkkOOOOOOOOOOOOOOOOOOOOOOkOOOkkkkkkkkkkkkkkkkkkkkxxxxddddddooooooooll' 
 cddddddxxxxxxxxxxxxxxxkkkkkkkkkkkkkkOOOkkkkkkkkkkkkkkkkkkkkkkkkkkkkkkxxxxxddddddoooooooooo, 
 cdddddddddddddxxxxxxxxxxkkkkkkkkkkkkkkOkkkkkkkkkkkkkkkkkkkkkOOOOOkkkkkkxxxxddddddddddddddd, 
 cddddddxxxxxxxxxxxxxxxxkkkkkkkkkkkkkOOOOOOkkkkkkkkkkkkkkkkkkOOOOOkkkkkkkkxxxxxxxxxxdxxxxxx; 
 cdxxxxxxxxxxxxxxxxxxxkkkkkkkkkkkkOOOOOOOOOOOOOOOOOOOOkkkkOkkxxkOkkkkkkkkkxxxxxxxxddddddddd; 
 cxxxxxxxxxxxxxxxxxxxxxkkkkkkkkkkkOOOOOOOOOOOOOkkkxdxxxkxo;'.'',lkkkkkkkkxxxxxddddddddddddd; 
 cdxxxxxxxxxxxxxxxxxxxxkkkkkkkkkkkkkxddoolc:;,,'.......''.......';lxkkxxxxxddddddddoooooooo, 
 cddxxxxxxxxxxxxxxxxxxxxxxxxxxxxd;..''..............................,lxddddoooollllllllllll, 
 ;lllllllllllllccccclllllllooool'....'.... ...........................'cllllccccccccccccc:c' 
 ,:::::ccccccccccccccclllllllllc...;...''''''.''................       .;:::::::::::c::::::. 
 ,c:::cccccccccc:ccccclllloolllc;',:':llolllllllllc:'..........         .,,,,,,,,,,,;;;:::;. 
 ,cccc:::;;;;;;,;,;;;:::::::::::::;'''cllllcccc:cccl:...                 .''''''''',,'',,,'. 
 ';;:::;;;;;,,,,,,,,;:::;:,;::::c;'''.:ddoollllllccc;...                  ..''''....'''''''. 
 .',;;:;:;;,,,'''''''',,,,,,;:ccc:....oxdooolllccc:::'..        .      ......''''''......... 
 .,;,;;,,,',;::,,'''..'',,;,'''.......llcoddoooooooooll.....         . ....,'',,,,'','''''.. 
 .'',,:,''',:::,;;'..'...'','''.'.....:c;l;,;:cllcllllc;...      ....    ..'''''''.';;;;;,;. 
 ',''''.',,'','....',,'..,;.......    .  .,xx:,'',;:::oo,..   .......      .,:;;;:,,:::::;;. 
 ';;..''..''',',.,,:ol:'.'.    ....       .:kd,;,,c:cco:'.    .......     ..,cccll;;oddddoo, 
 .','',;c:'.'.'''loloco:.   ........       .lko,;;,,:coc..   .......     ....,;::;:::::::cc' 
 ,'':lcc;;;:d,'''oxxxll:............        .lkd;:;::;;'............       .',;:c;cooolc:;;. 
 ,;;cl:,;;;ol:,,;oxkkc'.............       ...okk:cc::,,...........      ...,;,,''llll:c;'c' 
 ,l:;;,,;;'cc:'':oxkx;..............       ....lkO:;:,;;'..........     ...:'',,'',;'c;;;:c' 
 .;,;:;,,:locc,.;oxx,...'........... .      .. .;lx:',;;...........   ...;dx,',..';c,l:.'::' 
 ..'...';cxxxx:,:do,...,'..'.....'.. .       ..     .....    .....  ...'oxkx;';,.'';:;,..';. 
 ,;'',,;:lxxxlcldl'..';,'',' .........       ...      ..  ........  ....,ooo:..;;,,',,...';. 
 ;;..,::c;;clllxl,'',;:,':::;'...'.....       .'      ..  ......   ......:cl::c:co:;,c'..,;. 
 ':;,;,.,;;;:c;c;,,,::,,:ccc::;,,'.....       .''     .   ..  .. .,lc....;ll,,clcc,..;:',..  
 ';:cc;'';:c,'::;;;cl:':cccccc;,,'.....       .,;.  ....     ... ..lo....,cc'.c::;.  .'','.. 
 .:ll::;;;l;,cc:::clc;,:ccc::::::,,,c:,'.     .;;;'  .       .......,....,cl:....:'  .',''.. 
 ',,','.,:;;c:::::cc:,;:::::;;;::;ccc:c;.     'ccc:'.           .........,lll,.  :c. ......  
 ...,,''...',,;;:cc;,,::::::cdxxxxxdool;'. .. ,clc;.              .'.....,lldo.. 'c'.......  
 .....',..':clodddolollooooodxxxddoooll:'.... ..........  .     ..;:;....;lldl.....'',.....  
 '....',.',;coxkOOOOO000Okkxolc;,,,,;'.'..        .....;'...'',,'.;:,';:;:oodxc....'.. .,::. 
 ...,''...'';cldxkkkkkkkxddlc;,'.........            .;ccc;',',:'.,:,.'cccllodc,::;.....':o. 
