 ;cllllllllllllllllooooooooooooooooooooooooooooooooooo:..;oooooolllllllllccccc:::::::::::;;. 
 cxxxkxxxkkkkkkkkkkkkkkkkkkkkOOOOOOOOOOOOOOOOOOOOOkl:,...'xOOOOOkkkkkkxxxxdddddddoooooollll' 
 cdddddddxxxxxxxxxxxxxxxxkkkkkkkkkkkkkkkkkkkkkkkkk,.......cxkkkkkkkkkxxxxddddddoooooooooooo, 
 cddddddddddddddxxxxxxxxxxkkkkkkkkkkkkkkkkkkkkkkkk;'..,'..'ccoOOOOOkkkkxxxxxddddddddddddddd, 
 cddddddxxxxxxxxxxxxxxxxkkkkkkkkkkkkkkkkkkkkkkkOkk;'...'...'ccdOOOOkkkkkkxxxxxxxxxddddddddd; 
 cdxxxxxxxxxxxxxxxxxxxxkkkkkkkkkkkkOOOOOOOOOOOOx:'.'',;:;'..,::dkOOOkkkkxxxxxxxxddddddddddd, 
 cxxxxxxxxxxxxxxxxxxxxxkkkkkkkkkkkkOOOOOOOOOOOx,..';,:lc,...',,,,;::cokxxxxxddddddddddddddd, 
 cdxxxxxxxxxxxxxxxxxxxxkkkkkkkkkkkkkOkkkkkkkkkl...';::::'....'''......,odddddddddoooooooooo, 
 cdxxxxxxddddddddxxxxxxxxxxxxxxxxxxc:odxxxkxxxo.....''.................'ooooooooollllllllll' 
 ;lllllllllllllllllllllllllloooooo;,.'loooool,..   ...............    ..,cccccccccccccc::::. 
 ,::::ccccccc:ccccccclllllllollllccl.,dllll:.     ...........         ..'::;;:::::::::::::;. 
 ,:cccccccccccccccccclllllllllllllcc':llcl:.. ..............           .,,,,,,,,,,,,,,;;;;;. 
 ,:ccc:::;;;;;;,;;;;;::::::::::::;;''.ccc:.................           .,;,''''''''','''''''. 
 ';;:::;:;;;,,,,,,;;;:::;:;;;;:::,'''.coo,........               .  ..',,'''''''.....''''''. 
 .',;::;:;;,,,'''.'''',,,,,,;:ccc;....odol'......                 ......,'''.'''..'......... 
 .';,:;,;'';;::,,',,'..',,;,'''.......lcclol:,''',co.              ....'c;','',,,,'','''''.. 
 .,,,,:,''';::;,;;''.'...'','''.......::,c;,;:clollol..              ..,:;''''''''.';;;;;,,. 
 ',,''''';,'','....',,'..,;.   .........',lkk:,,,;:cc...              .:oc;,;c;:::,,:::::;;. 
 .;;..''..''',',';,coc:'.'.  ..........',,;oOd;;,;lcc..               ..cc;;;lccll;;oooddoo, 
 .',',,;cc'.'.'''lolococ.   ..........',,,''okl;::;;:'.                .lko,',:cc,:::::::::' 
 ,',:lcc;;,:d,'''oxxxco:. ............',,,,'.'co::;::..               .;oOd,',;:c;cddolc:;;. 
 ,,;cl:,,,;ol:,;;oxxkc'....''.........''''''..'',,cc:.               ..cokxc;;;,,,llll:c;'c' 
 ,c;;;,,;,'cc;'':okkx,....''.............'.....'. .,:.         .......';okkd'',,'.,;'c:;;:c' 
 .;,,:;,,:oocc,.:dkd,...'''...''''................  ..         ......'..xkkx,''..';c,c:..::' 
 ......';cxxxx:,cdo'...,''.....'.'......... .....'         ...........;:dxxx;,;,.'',:;,..';. 
 ,,',,,::lxxxllodl'..';,'','. ...''......... .,'...   .   .........::...,llo:..;;,,',,...';. 
 ,,..,::c;;clclxl,'',;;,,:::;,'',,,,,,''';;;;;;;'.'.. .'  .........cc....;cc::cccl:;,c'..,;. 
 ':;,;,.';;;::;c;;,;::,,:c:::::;;,,,;;;;',;;;;;;;''coox;;..........,c....,cl,,cccc,..;;',..  
 '::cc;'';:c,':::;:cl;,:cccccc:;,,,,,;,''';::::::;''ldox;c.........,o'...,cl'.c::;.  .'','.. 
 .:lc::;:;l,,cc:::clc;,:llc:::::c;,,;;;,,,;:cccccc;''ldx0x:........;:....,cc:....:'  ..,.... 
 .,,','.':;;c::::ccc:,;::::::::cl:lccc:;,;;:llollll;.':;;.      ..,:.....,lll,.  :c. ...  .  
 ...','...',,,;;:cc;',::::::ldkxxooococ;;;c:loooooo:.      .    .'c,.....,cldo.  'c'.......  
 .....,,..':lodxxddodooodooddxxdoollllc:;;;;:cc::::;;;;,,.....,,..:c;....;lldl.....'''.....  
 '....',.'';coxkOOOO0000Okkdolc;,,,,,'.,,;:::loodddoool:;';;;::;'.;c,';:;:oodxl....'.. .,::. 
 ...;''...'';codxkkxkkkkxdooc;,'.......'.'',,;:ccllooddool;,,,:c'.,:,.'clcllooc,:::......:d. 
