 ;llllllllloooooooooooooooooooooooooooooooooo,....,lllll;............clllcccccc::::::::::;;. 
 cxkkkkkkkkkkkkkkkkkkkkOOOOOOOOOOOOOOOOOOOOOd.....ckkOOOx'.'';,'',,.'dxxxxddddddddoooooooll' 
 cddxxxxxxxxxxxxxxxxxxkkkkkkkkkkkkkkkkkkkkkx'.....okkkkOk::::;,''','':xxxddddddddoooooooooo, 
 cddddxxxxxxxxxxxxxxxxxxkkkkkkkkkkkkkkkkkkk:.....,xkkkOOkc:,''','''.';oxxxxdddddddddddddddd, 
 cddxxxxxxxxxxxxxxxxxxkkkkkkkkkkkkkkkkkkkkx'.....:kOOOOOOk:.........,;dkxxxxxxxxxxxxxxddxxd; 
 cxxxxxxxxxxxxxxxxxxkkkkkkkkkkkkkkOOOOOkkkk;......':dOOOOOk'.........,oxxxxxxxxxxxxxddddddd, 
 cxxxxxxxxxxxxxxxxxxxkkkkkkkkkkkkkOOOOOOkkkd'........'ldxOO;..       .,dxxxxxdddddddddddddd, 
 cxxxxxxxxxxxxxxxxxxkkkkkkkkkkkkkkkkOOkkkkkko,'''.... ........       ..,oddddddddoooooooooo, 
 cddxxxxxxxxxxxxxxxxxxxxxxxxxxxxxxxc:cdxxxkkkxc..............         .':ooooooolllllllllll, 
 ;lllllllllllllllllllllllooooooooo;,..;ooooodddl;........''..         ...:cccccccccccccc:::. 
 ,:::cccccccccccccccllllollloollolcl,':llllooooooo:............     .''..;::::::cc:::::::::. 
 ,cccccccccccccccccclllllllolllllllllollccclllooool'... .............,'.';,,,,,,,,,;,,;::;;. 
 ,cccc:::;;;;;;,;;;;;::::::::::::;:::cdlcccccccccllo;............',;;'.'c,,'',,'''',''','''. 
 ';;:::::;:;,,,,,,;,;:::;:;;:::c:,,;:cxdoollllllollll,.     .....','...';''''''''...'''''''. 
 .,,;::;:;;,,,,''''''',;,,,,;:lcc;';;:kddooollllllccc;.       .........:;,'''''''''......... 
 .';,:;,;,';;cc,,,,,'''',,;,'''....'':xlcloodddddddddc.          ......,l;',,',,,,'','','''. 
 .'',;:,''',:c;,;;''.,...'','''....'';o:,:;,;::llcllo:.            ....,l:''''''''.';;;;,,,. 
 ,,,''''',,,',''...',;''.;;..  .........',lkk:,,,;::c:..              ..ol;,;c::::,,:::::::. 
 .;;..''..''';',';,col:,.'.. ..........',,,oOx;;,,lccl.                'll:,;lcccl;;oodddoo, 
 .',',,:cc,.,.'''loldcoc.   .'........',,,''oko;;:;,:c.                .:kd,',::c;:c::::::c' 
 ,',:occ;;,:d;'''oxxkll:. .............',,,'.,cd::;:;,. .              .:Od,',;:c;cddooc:;:. 
 ,;;cc:,;;;dl:;;:oxkkl'....''...........''''..',;,:c:,            .....cokkc;;,,,'llll:c;'c' 
 ,l:;;,,;;,cl;'':okkx,....''...................'. .';.          .....'',okkx,';,'',;,c:;;:c' 
 .;,,:;,,:ooll,.:dxd,...'''.''''''...............   ..        .......'..dOkx,,,..';c;c:..::' 
 ..'.'.';cxxxx:,cdo'...,''.....'.'........   .....   .     .........,.::oxxx;,;,.'',:,,..';. 
 ;;',;;::lxxxlloxo'..';,'','. ...''...........,'...   .   .........lc...,cloc..;;;;',,...':. 
 ;,..;::c;;ccllxl,,,,;;,,:::;,''',''''''';;;,,,;'...  .'  ........'oc....;cc::ccco:;,c,..,;. 
 ,:;,;,',:::c:;c;;;;::,,cccc:::;;,,,,;,,',;;;;;;;'.c:od;,..........oo....,cl,'lccc,..,;',..  
 ';:cc:'';cc;,:::::cl;,:cccccc:;;,',,,,''',::;;;:;.'codx:c'.......'dd'...,cc'.::;;.  .',,'.. 
 .:lc::;:;l;;ccc::llc;,cclc::::cc;,,;:;,,,,:cccccc;'.lox0l'.......cxc....,cc: ...:,  ..,.... 
 .',','.':;:c::::clc:,;::::::::cccclc::,,;;;cllllll;..;'.       .cxl'....,lll;.  ;c.  .. ..  
 ...',''..',,,;::cc;',::::::lxkkxkxoool;,;c;coooool:.  .   .   ..:l;.....,lldd. .'c'.......  
 .....,,..':lodxxxdoddodddodxxddollllc:;,,;;::::::::;;;;' ...,;c,.;c:'...,lldo.....'',.....  
 '....',.'';loxkOOOO0000OOkxdlc;,,,,,'.,,,;::loodddooool:,,,::c:,.;c;';:::oodxl....'.. .,;c. 
 ...;',...',;:loxkkxkkkkxxdoc;,'..........''';:ccloodddoll:;;;:c,.;c;..clcllodc,c::......;d. 
