 ;lllllllllllollllllooooooooooooooooooooooooooooooooooooooollllllllllllccccccc:::::::::::;;. 
 cxxxkkkkkkkkkkkkkkkkkkkkOOOOOOOOOOOOOOOOOOOOOOOOOOOOOOOkkkkkkkkkkkxxxxxddddddooooooooolllc, 
 cdddddxxxxxxxxxxxxxxxxkkkkkkkkkkkkkkOOOOOOOOOOOOOOkkkkkkkkkkkkkkxxxxxxddddddooooooooooolll, 
 cddddddddddddddxxxxxxxxxxkkkkkkkkkkkOOOOOOOOOOOOkkkkkkOOOOOOOkkkkkkxxxxxddddddddddddoooooo, 
 cddddddxxxxxxxxxxxxxxxxkkkkkkkkkkkkOOOOOOOOOOOOOOOOOOOOOOOOOkkkkkkkkkkkkxxxxxxxxxxdddddddd, 
 cdxxxxxxxxxxxxxxxxxxxkkkkkkkkkkkOOOOOOOOOOOOOOOOOOOOOOOOOOOOOOkkkkkkkkxxxxxxxxxddddddddddd, 
 cxxxxxxxxxxxxxxxxxxxxxkkkkkkkkkkOOOOOOOOOOOOOOOOOOOOOOOOOOOOOOkkkkkkxxxxxxxddddddddddddddd, 
 cdxxxxxxxxxxxxxxxxxxxxkkkkkkkkkkkOOOOOOkdddxkkkkkkkkkOOOOOOOkkkkkkxxxxxxdddddddddooooooooo, 
 cdddxddxdddddddddxxxxxxxxxxxxxxdlllodc,.'''...........',cdxkkxxxxxxxddddoooooollllllllllll' 
 ;llllllllcccccccccclllllllllol'....''......................,coooooollllcccccccccccccccc:::. 
 ,:::::cccccccccccccccllllllll,.......................       .':ccc::::::::;::::::::::::::;. 
 ,c:::cccccccc:::cccclllllllll:.... ........... .......       ..,:::::;;;,,,,,,,,,,,,,;;;;;. 
 ,:ccc:::;;;;;,,,,;;;::::::::::::;,'.........    ..... .       ..,;:;;;;;,'''''''''''''''''. 
 ';;:::;;;;;,,,,,,;,;:::;:;;:::::,'........      ...............,;;;,,',''''''''.....''''''. 
 .',;;;;:;;,,,'''.'''',,,,,,;:ccc;....'.                 .......''.;;,,,,''..'''............ 
 .';,;;,,'';;::',',,...'',;,'''.......c.        .         .  .......,;;,c;','',,,,'',''''''. 
 .'',,:,''.,;:;,;,'..'...'',''........c:... .....                .  .;c.:;.''''''..,;;;;,,,. 
 ','''.'',,'','....',,...,;.   ...       .:kk:,,.                 . .,'.cc,,;:;;::',:::;;;;. 
 .;,..'....'',''.,,coc:'.'.    ...        .ckd;;.                 ....';cc;;;lcccl;;oodddoo, 
 .'''',;c:'.'.''.llloco:.   .. .....       .oko;'                  ...'cokl,',:::,:::::::::' 
 ''':lcc;;,:d,'''oxxxco:. ..........   .'.. .okd;..        .         ..coOo'',;:c,cooocc;;;. 
 ,,;cl;,,,;ol:,,:oxxxc'.............   .,,'. .okk,..       .          .lokx:;;,,,,llll:c,'c' 
 ,c;;;,,;,'cc;'':okkx,..............   .''''. ..:x,        .       ....;oxko'',''';;'c;,;:c' 
 .;,,:;,,:locc,.:dkd,...'............. ......    ..   ......    .. .....xkkd'''..':c,l;.'::. 
 ......';cxxxx:,cdo'...,'........'..    ... ..        .............,'.;;odxo;';'..',;,'..,;. 
 ,,'',;::lxxxlloxl'..';,.',.  ...'....  .... ..       ............lo;...,cll;.';,;,',,...';. 
 ,,..,;:c;;ccllxl,'',;;'':::,'...'......',;;;;;.     ............:dd;....;cc;::ccl;;,c...,;. 
 ';;,;'.';;;::;c;,;,::,,:::::;;,,........,:;;;,.     ............:od:....;cc',ccc:,..,;''... 
 ';::c;.';:c,'::;;;cc;':ccc:::;,'''......';:::.       ........  ..,oc....,cc..:;:,.  .,','.. 
 .;lc:;;;;l;,cc:::cl:'.;:c:;;;;::,,,:c;,,,;c:.       .;:'....  ....,;....,cc;....:.  ..,.... 
 .',','.':;;c::::cc:'.',,,,,,;;:::clc:c;,;,.. ..   ...,,;.      .........,ccl,. .::  ...  .  
 ...',''...',,;;:c;'..,,,,,,cdxxxxddooo,,,.. .....cc.            .,'.....,ccdl   ,c........  
 .....',..':clodddolccllooooddddollllc:'...   ...,:;,,,,... ......;:,....,clol.....''......  
 '....',.'';coxOOOOO0000Okkdoc;,''........      'ooolll:'..,;;;;..;:'.,;;:lldx:....'.. '':;  
 ...,''...'';:ldxkkxkkkxxddlc;'...........     .;cllooolcc,'',;:..,;'.':c:ccoo:,::;......:o  
