 ;lllllllllllollllllooooooooooooooooooooooooooooooooooooc,..........,clccccc::::::::::::;;;. 
 cxxxkkkkkkkkkkkkkkkkkkkkkOOOOOOOOOOOOOOOOOOkkkkkkkkkkkx'.............:odddddooooooollllllc' 
 cdddddddxxxxxxxxxxxxxxxkkkkkkkkkkkkkkkkkkkkkkkkkkkkkkx,'..........'...,odddooooooooollllll, 
 cddddddddddddddxxxxxxxxxxxkkkkkkkkkkkkkkkkkkkkkkxolcc:........''.....',odddddddooooooooooo, 
 cdddddddddxxxxxxxxxxxxxxkkkkkkkkkkkkkkkkkkkkkxl,..... ............''..,oxxxxxddddddddddddd, 
 cdxxxxxxxxxxxxxxxxxxxxkkkkkkkkkdokOOOOOOkkkd,........        ......'';lxxxxxdddddddddddddd, 
 cxxxxxxxxxxxxxxxxxxxxxxkkkkkkkkkkOOOOOOOOkl..'''.....    .      ......,dxddddddddddddddddd, 
 cdxxxxxxxxxxxxxxxxxxxxxkkkkkkkkkkOOOOOkkkk,;;,,'...................   .;dddddooooooooooooo, 
 cdddxxxxxdddddxxxxxxxxxxxxxxxxxkkxlodxkxxxc;,.....................    ..cooollllllccclllll' 
 ;llllllllcccccccllllllllllloool;,....,:;,''..........     ...........  ..:ccccccccccc:::::. 
 ,::::::cccccccc:cccccllllllllc....            .......    ................;;;:::::::::::::;. 
 ,::::ccc::ccc::::ccccllllllllc...                ......  ...............';,,,,,,,,,,,;;;;;. 
 ,:ccc:::;;;;;;,;;;;;::::::::::;'',''........  ....'';:,..      .  ......;c''''''''''''''''. 
 ';;:::;;;;;,,,,,,;,;;::;:;;:;:::,'''.,looollllllcllllll..  .  ..........,c'''''.....'''.''. 
 .',,;;;:;,,,,'''.''.'',,,,,;:ccc;....oddooollcccccc::::'  ...............:,.'''............ 
 .';';;,,'',,::'''''..',,,;,'''.......llcloooooooooooooo,  .. ....   ... .,;'',,'''','''''.. 
 .'',,;,''.;;c:,;;'..'....',''''......::;c,,;:cllcllllllc.     ...     ...','''''..';;;,,',. 
 ',''''.',,'','....',,'..,;. ............,lxx;,'',;:ccodl,            .....,,;,;;;'':;;;;;;. 
 .;,...'..''',',',,:oc:'.'.  ..........'',;oOo,,,,c::co:;;.          .......,lccll;;loooool' 
 .','',;::'.'.'..clloco:.   .'........',,,''dkl;,;,,:cdc,,'.            ....',;::,::;;;::::' 
 ''';lcc;;,:d,'''oxxxlo:. ............'',,,.'dkd;;;::,;.'.,. .           ..''';:c;:oooc:;;;. 
 ,,;cc;,,,,ol:,,;oxxxc'....''...........''''.'dkx:::::,,,;,...         . .;:;;,,''clll:c,'c' 
 ,c;;,',;,'cc:'':okkx;.....'..................'okk;;:,;;ol,...     .....:xkd'',,'.,;'c;;;:c' 
 .;,;:;,,:locc,.:dxx,...'''...''''...............,l,',,;::..............xOkx'''...;c,l:..;;. 
 ......';cxxxx:,:do'...,''.....'.'.........  ....   .'.............  .;:dxkx;';,.'',;,'..';. 
 ,,'',,;;lxxxlcldl'..',,'.''. ...''......... .'..    .,':........ .,,...,loo:..,,,,'',...';. 
 ,,..,::c;;clllxl,'',;;,':::;'''',''''''',,,,,,,..    .;:....... .ldc....;cc::c:cl;;,:'..';. 
 ';;,;,.,;;;::;c;,,,::,,::::::;;;,,,,,,,',;;,,,,;..    .c,........:dl....,cl,,cccc,..,;.'..  
 ';;::;.';:c;'::;;;cc:':cccccc:;,'',,,,''',;;;;;;,..,:. .;..'.....'lo....,cc'.::;;.  .'''... 
 .;lc::;;;l,,cc:::clc;,:ccc::::::;,;c:,,',,:ccc:::,.'c:,'',........::....,cc; ...;'  ..'.'.. 
 .,,','.,:;;c::::ccc:,;::::::::cc:cllcc,,;;;clllccc,.';,'.    .....,.....,lcl,.  ;c.  ..  .  
 ...'''....',,;;:cc;,,::::::cxxxxxxdoll;,;c:clllool:.   ..     ...:,.....,cldo   'c'.......  
 .....',..';codddddooooooooodxxddolllcc:,;;;:::;::;;,,,'' .. .....;:;....,llol.......'.....  
 '....',..';coxkOOOOO000Okkdoc:;,',,,'.,,,;;:llloooolllc,.,;;::;'.;:,';;;:lodxc....'.. .';:  
 ...,''...',;codxkkxkkkxxddlc:,'..........''';;;;:clloolcc;',,;:'.,:,.'cccclool,:;;......;d. 
