 ;lllllllllllollllllooooooooooooooooooooooooooooooooooooooolllllllllllccccccc::::::::::::;;. 
 cxxxkkkkkkkkkkkkkkkkkkkkOOOOOOOOOOOOOOOOOOOOOOOOOOOOOOOkkkkkkkkkkxxxxxddddddddoooooooollll' 
 cdddddxxxxxxxxxxxxxxxxkkkkkkkkkkkkkkOOOOOOOOOOkkOOkkkkkkkkkkkkkkxxxxxdddddddooooooooooolll, 
 cddddddddddddddxxxxxxxxxxkkkkkkkkkkkOOOOOOOOOOOOkkkkkkOkOOOkkkkkkkxxxxxxdddddddddddddooooo, 
 cddddddxxxxxxxxxxxxxxxxkkkkkkkkkkkkOOOOOOOOOOOOOOOOOOOOOOOkkkkkkkkkkkxxxxxxxxxxxxxdddddddd, 
 cdxxxxxxxxxxxxxxxxxxxkkkkkkkkkkkOOOOOOOOOOOOOOOOOOOOOOOOOOOOOkkkkkkkkxxxxxxxxxdddddddddddd, 
 cxxxxxxxxxxxxxxxxxxxxxkkkkkkkkkkOOOOOOOOOOOxdoolldxxxOOOOOOOOkkkkkkkxxxxxxdddddddddddddddd, 
 cdxxxxxxxxxxxxxxxxxxxxkkkkkkkkkkOOOOOOOOxc,..........'',;coxkkkkkkxxxxxdddddddddoooooooooo, 
 cddxxxxxxxxxxdxxxxxxxxxxxxxxxxkkkkllxxko,...................,lxkxxxxddddoooooooollllllllll' 
 ;llllllllllllcllllllllllooooooo;;'..'c;.................. . ..'cooolllllccccccccccccccccc:. 
 ,:::cccccccccccccccccllllllllc..........................      ..':::::::::;::::::::::::::;. 
 ,cc::cccccccc::ccccclllllllll:................    .....         ..;::;;;,,,,,,,,,,,,,;;;;;. 
 ,:ccc:::;;;;;;;;;;;:::::::::::,..,''. ...                    .....,;;;;;,''''''''','''''''. 
 ';;:::;;;;;,,,,,,;,;:::;:,;:::cc,'''.  ..                  .......,,,,,''''''''.....''''''. 
 .',;;;;:;;,,,'''.'''',,,,,,;clcl;....';'..   ...          ..........';,,''..'''............ 
 .';,:;,,'';,::,,',''.'',,;,,,'''.....:lclollodo.         ..     .....'':;','',,'''','''''.. 
 .'',,:,''.;;c:,;,''.'...'','''.'.....:c:l;,:c:.         ..          ..,:;.'''''''.';;;;,,,. 
 ',,'''.',,'','....',,'..;;.......    .  .;xx:.       ....          ...';c,,;:;;;:',:::;;;;. 
 .;;......''',',',,col:'.,.  ......  .    .;l,  .........           ....,c;,;lccll;;oddddol, 
 .','',;c:'.'.'''lolococ..  ...............    .........             ...,ol,',:::;:::::::cc' 
 ,'':lcc:;;:d,'',oxxxlo:. .....',..........    .........               .'xo''';:c;cooolc;;;. 
 ,,;cl:,,;;ol:,;:oxxxc'..........'..'........   .....';,.              .:kxc;;,,',llll:c,'c' 
 ,l;;;,,;,'cl;'':okkx;................','.....   ..':;;:,            ..;lxko'',,'';;,c;;;:c' 
 .;,;:;,,:locc,.:dkx,...'...''''''...'........   .,'',;;'..      .......xkkx'''..':c,l:..;:. 
 ..'...':cxxxx:,cdd'...,,'.'...'.,'......... ..      .................;;odxd;';,.'';:;'..';. 
 ,;',,;::lxxxlloxo,..';;'','.....,''........ .;.      ''...........:;...,clo:..;,,,',,...';. 
 ;,..,:cc;;clclxl,'',;:,,:::;,,',,,,,,,,,;;;;;;;.     .;.........'ldc....;cc::cccl:;,c'..,;. 
 ':;,;,',;;;:c:c;;;;::,,cccccc::;,,;;;;;,;::;;;;:.  .. ..........,odl....,cc,,cccc,..;:.,..  
 ';:cc;'';:c;':::;:cl:,clclccc::;,,,,;;,',:::::::;..,:,...........'lo....,cc'.::;;.  .'','.. 
 .:ll::;;;l;,cc:::clc;,cllc:ccccc;;;ll:;,;;cllllcc;..,:::,.........';....,cc:....:'  .',.... 
 .,,','.,c;;c::::ccc:,;:::ccccccc:ccccc;;:::loooool;......   ............,ccl,.  :c. ...  .  
 ...',''...',,;;:cc;,,:::::clxkxxxxdlol;;:c:loooddoc.    .       .''.....,ccdo.  'c'.......  
 .....',..':lodddddodooodoodxxxxdoololc:;::;ccc:::::;;,'....  ....;:;....,llol.....'''.....  
 '....',.'';coxkOOOO0000OOkddlc:,,,;;,.;,;::cooodddooooc,';;,,;;'.;:,.,;;:llddc....'.. .,::  
 ...,''...',;codxkkxkkkxxdooc;,,....'..''',,,;:::cloooollc;',,;:'.,:'.'cc:ccooc,::;......:d. 
