 ;lllllllllllollllllooooooooooooooooooooooooooooooooooooc,.,........:llcccccc::::::::::::;;. 
 cxxxkkkkkkkkkkkkkkkkkkkkOOOOOOOOOOOOOOOOOOOkkkkkkkkkkl,.............,dxdddddddooooooollllc' 
 cdddddddxxxxxxxxxxxxxxkkkkkkkkkkkkkkkkkkkkkkkkkkkkkkd:'......''......,ddddddoooooooooollll, 
 cddddddddddddddxxxxxxxxxxkkkkkkkkkkkkkkkkkkkkkkkkkkkl.......''.......;dxxxddddddddddoooooo, 
 cddddddddxxxxxxxxxxxxxxkkkkkkkkkkkkkkkkkkkkkkkkkxolc:'''........'',',cxxxxxxxxxddddddddddd, 
 cdxxxxxxxxxxxxxxxxxxxxkkkkkkkkkkkOOOOOOOkkkkko;.....  ............'.,lxxxxxxxddddddddddddd, 
 cxxxxxxxxxxxxxxxxxxxxxxkkkkkkkkkkOOOOOOOOOx:........       ...........oxxxxddddddddddddddd, 
 cdxxxxxxxxxxxxxxxxxxxxkkkkkkkkkkkOOOOOkkOo........... .   .........  ..ldddddddooooooooooo, 
 cdddxxxxxdddddxxxxxxxxxxxxxxxxxkkxc:oxkkd',;,,'...................    .'ooooolllllllllllll' 
 ;llllllllcccccccllllllllloooool;'....;:;'';,'''......  .............. ..,ccccccccccccc::::. 
 ,::::::ccccccccccccccllllllllc.....      ..'.........    ...............';;;:::::::::::::;. 
 ,::::ccc::ccc:::cccccllllllllc...           .........   ............''.';;,,,,,,,,,,,;;;;;. 
 ,:ccc:::;;;;;;,;,;;;::::::::::;'',''. ....   ....',,'...      . .......,c:''''''''''''''''. 
 ';;:::;;;;;,,,,,,;,;:::;:,;;;::c;'''.'loolllccclllclll:.   .  .........';c'''''.....''''''. 
 .',,;;;:;,,,,'''.'''',,,,,,;cccl;....oddooollcccccc::::.  ..............'c'.'''............ 
 .';';;,,'',,::,'''''.'',,;,'''.......llcloooooooooooooo'  .  ....  ......:;,',,''''''''''.. 
 .'',,:,''.;;c:,;;'..'....','''.......::;c;,;::llcloolllc.     ..     ....,,'''''..';;;;,,,. 
 ',''''.',,'','....',,'..,;..............,lxx;''',;::codl'           .....',;:;;;:''::;;;;;. 
 .;,...'..''',',',,:oc:'.'.  ...........',;oko,,,,cccco:;;.          .......,lc:cl;;loooool, 
 .','',;::..'.'..coloco:.   .'........',,,''dOl,,;,,:cdc,,'.              .'',;::,;:;;;;:::' 
 ''';lcc;;,:d,'''oxxxll:. ............'',,'''dkd;;;::,;''',. .            .''';:c;:ooocc;;;. 
 ,,;cc;,,,,ol:,,;oxxxc'....''...........''''.'dkk::c::,,,;,...        .. .c:;;,,''llll:c,'c' 
 ,c;;,,,;,'cl;'':okkx,....''..................'oxk;;:,;;ol'...    ......lkkd'',,'.,;'c;,;:c' 
 .;,;;;,,:locc'.:dkd,...'''...''''.............. ,c,',,;::.......... ...xOkx'''..';c,c:..;;. 
 ......';cxxxx:,:do'...,''.....'.'......... .....   .'................;;dxkx;';,.'',;,,..';. 
 ,,'',,;;cxxxlcldl'..',,'','. ...''......... .'..    .,':........ .;;...,llo:..,,,,'',...';. 
 ,,..,::c;;ccllxl,'',;;,':::;'''',''''''',,,,,,,..    .;:....... .odc....;cc::c:cl:;,:'..,;. 
 ';;,;,.';;;::;c;;,,::,,::::::;;;,,,,,,,',;;,,,,,..    .c,........:xl....,cl,,cccc,..,;.'..  
 ';:::;.';:c;'::;;;cc;':cccccc:;,,,',,,''',;;;;;;,..;c. .:..'.....'lo....,cc'.::;;.  .'''... 
 .;lc:;;;;c,,cc:::clc;,cccc::::::;,;c:;,',,::cc:::,.'cc;,,,........::....,cc; ...:'  ..,.... 
 .,,','.,:;;c:::::cc:,;::::::::cc:cllcc,,;;;clllccc,.';,..    .....,.....,cll,.  ;c.  ..  .  
 ...','....',,;;:c:;,,::::::cxxxxxdolll;,;c;clllool:.   ..     ...:,.....,cldo   'c'.......  
 .....',..';codddddodooooooodxxxollllcc:,;;;:::;::;;,,,'' .. .....;:;....,llol.......'.....  
 '....''..';coxkOOOOO000Okkdol:;,',,,'.,,,;;:lllloooollc,.,;;::;'.;:,';;;:lodxc....'.. .';:  
 ...,''...'';codxkxxkkkxxddoc;,'..........''';;;:cllloolcc;',,;:'.,:,.'cccllool,:::.....':d. 
