 ;cllllllllllllllllllllooooooooooooooooooooooooooolllllllllllllllllllllllcclcccccc:::::::;;. 
 cxxxxxxxxkkkkkkkkkkkkkkkkkkkkOOOOOOOOOOOOkkkkkkkkkkkkkkkkkkkkkkkkkkkkko'.'clooddddoooolllc' 
 cdddddddddddddxxxxxxxxxxkkkkkkkkkkkkkkkkkkkkkkkkkkkkkkkkkkkkkkkkkkkkd:.. .....,:ooooooolll, 
 cdddddddddddddddddxxxxxxxxkkkkkkkkkkkkkkkkkkkkkkkkkkkkkkkkkkkkkkkkxc.....  ....'ldddoooooo, 
 cddddddddddddddxxxxxxxxxxkkkkkkkkkkkkkkkkkkkkkkkkkkkkkkkkkkkkkkkkx,...........''oddddddddd, 
 cddddxxxxxxxxxxxxxxxxxxkkkkkkkkkkkkkkOOOOOOOkkkkkkkkkkkkkkkkkkkkkc.............'oddddddddd, 
 cdxxxxxxxxxxxxxxxxxxxxxxkkkkkkkkkkOOOOOOOOOOkkkkkkkkkkkkkkkkkkkkkx;...........':dddddddddd, 
 cddxxxxxxxxxxxxxxxxxxxxxkkkkkkkkkkkkOOkkkkkkkkkkkkkkkkkxolc:;,''...............,looooooooo, 
 cdddddddddddddddddxxxxxxxxxxxxxxkxl:llllocccc:::;;;;,;,......  ..       ... ....;lllllllll' 
 ;lllllllllccccclllllllllllloollc,.','......          ........  .                .;cccc::::. 
 ,::::::cccc:::cccccccllllllllll..,clo'   .           ........ ..  .            ...;::::::;. 
 ,:::::cc:::::::::ccclllllllllll,.'cl:''.........     .................          ...,,;;;;;. 
 ,:::::::;;;;;;;;;;;;:::::::::::c::::cdlllccc::::::ccccccc:::cc;......           ...'''''''. 
 ';;:::;;;;;,,,,,,;,;:::;:;;::::c;;;;,lddoollllclccllllc:''.;:,..  ..             ...''''''. 
 .',,;;;;;,,,,'''.'''',,,,,,;cccc:.'..lxdooollccccc:::;;.............              ......... 
 .';';;,,'',,::,,',,'.',,,;,','.......llcoddooooloooolll:...     .                  ''''''.. 
 .'',,:,'.',;::,;;''.'...'','''.'.....:c;l;,;::llcclllccc;'..                 .     ';;;,,,. 
 ',''''.',,''''....',,'..,;.. .........  .,xx;''',;:::lol:l:;;,.                    .::;;;;. 
 .;,......''',',.,,:ol:'.'.    .......    .:kd,,',c::co:,;:::ll.                 . .coooool' 
 .'''',;::'.'.''.colocl:.   ........       .cxl,,;,,;coc'',;;:'.                ..;:::::::c' 
 ''';lcc;;,:d,'''oxxxll:. ..........        .cxd;;,:;,;...,,.'..               .,;cddolc:;;. 
 ,,;cc:',,,ol;,,;oxxxl'.............         .lkx;::;;,,',;'.                 ..;,loll:c,'c' 
 ,c;;,',;,'cl;'':oxxx;.................       .okk:;:,,,ll,.                ...,,';:,c:;;:c' 
 .;,;:;,,:locc,.;oxd,...'''...''''...'.........'lox:',,;;;'            ......',..':c,l:.';:. 
 ......';cxxxx:,:do'...,''.....'''......... ...... ........          .....:d:;c;',,;:;,..';. 
 ,,'',,;;cxxxlcldl'..',,'','. ...''......... .,...    ..;;         .   .'odxl.':;;,',,...';. 
 ,,..,;:c;;cccldl,'',;;,':::;,''',,'',',,,;;,,,,...    ,;;. .    .  .....coolclllo:;;c'..,;. 
 ';;';'.';;;::;c;,,;::,,::::::;;;,,,,;,;',;;;,,,,...   .:c. ........'....:oo:;loll;..;:',..  
 ';;:c;'';:c;'::;;:cc;':cccccc:;,',,,,,,'';::;;;;,..,;,..;,..............;oo,.lc::'  .,'''.. 
 .;cc:;;;;c,,cc:::ccc;,:ccc::::::;,,,;;,,,;:ccc::;,..lcol;;.  ...........;ooc.'..:,  .',.... 
 .',','.':;;c:::::cc:,;::::::::cl:cllc:;,;;:clllcc:,.,lllc.     .........;ooo;...:l. ...  .  
 ...','....',,;;:cc;,,::::::coddxxddcll;,;::cllllll:' .          ..,.....;ooxd...,l'.......  
 .....',..';coddddooooooooododdoollllll:;;;;:c:::;;;,,,'. .. .....;c:'''';ooxd.''.''''.....  
 '....',..';coxkOOOOO000Okkdol:;,',,,'.,,;:::lllloollccc,.. .';;'.;c;';c:codxkl....,.. .,;:  
 ...,''...'';:ldxkxxkkkxxdooc;,'.......''''',;;:::cllllc:.,.'';:'.;:,.'llcooddo;cc:......:d. 
